999
dxfrw 0.6.3
  0
SECTION
  2
HEADER
  9
$ACADVER
  1
AC1021
  9
$DWGCODEPAGE
  3
ANSI_1252
  9
$INSBASE
 10
0
 20
0
 30
0
  9
$EXTMIN
 10
10.2537913610258
 20
-24.46287758774778
 30
0
  9
$EXTMAX
 10
982.0992942976103
 20
592.6373517757622
 30
0
  9
$LIMMIN
 10
0
 20
0
  9
$LIMMAX
 10
420
 20
297
  9
$ORTHOMODE
 70
    0
  9
$REGENMODE
 70
    1
  9
$FILLMODE
 70
    1
  9
$QTEXTMODE
 70
    0
  9
$MIRRTEXT
 70
    0
  9
$LTSCALE
 40
1
  9
$ATTMODE
 70
    0
  9
$TEXTSIZE
 40
2.5
  9
$TRACEWID
 40
15.68
  9
$TEXTSTYLE
  7
STANDARD
  9
$CLAYER
  8
Notes
  9
$CELTYPE
  6
BYLAYER
  9
$CECOLOR
 62
  256
  9
$CELTSCALE
 40
1
  9
$DISPSILH
 70
    0
  9
$DIMSCALE
 40
5
  9
$DIMASZ
 40
2.5
  9
$DIMEXO
 40
0.625
  9
$DIMDLI
 40
3.75
  9
$DIMRND
 40
0
  9
$DIMDLE
 40
0
  9
$DIMEXE
 40
1.25
  9
$DIMTP
 40
0
  9
$DIMTM
 40
0
  9
$DIMTXT
 40
2.5
  9
$DIMCEN
 40
2.5
  9
$DIMTSZ
 40
0
  9
$DIMTOL
 70
    0
  9
$DIMLIM
 70
    0
  9
$DIMTIH
 70
    0
  9
$DIMTOH
 70
    0
  9
$DIMSE1
 70
    0
  9
$DIMSE2
 70
    0
  9
$DIMTAD
 70
    1
  9
$DIMZIN
 70
    1
  9
$DIMBLK
  1

  9
$DIMASO
 70
    1
  9
$DIMSHO
 70
    1
  9
$DIMPOST
  1

  9
$DIMAPOST
  1

  9
$DIMALT
 70
    0
  9
$DIMALTD
 70
    3
  9
$DIMALTF
 40
0.03937
  9
$DIMLFAC
 40
1
  9
$DIMTOFL
 70
    1
  9
$DIMTVP
 40
0
  9
$DIMTIX
 70
    0
  9
$DIMSOXD
 70
    0
  9
$DIMSAH
 70
    0
  9
$DIMBLK1
  1

  9
$DIMBLK2
  1

  9
$DIMSTYLE
  2
Standard
  9
$DIMCLRD
 70
    0
  9
$DIMCLRE
 70
    0
  9
$DIMCLRT
 70
    0
  9
$DIMTFAC
 40
1
  9
$DIMGAP
 40
0.625
  9
$DIMJUST
 70
    0
  9
$DIMSD1
 70
    0
  9
$DIMSD2
 70
    0
  9
$DIMTOLJ
 70
    0
  9
$DIMTZIN
 70
    8
  9
$DIMALTZ
 70
    0
  9
$DIMALTTZ
 70
    0
  9
$DIMUPT
 70
    0
  9
$DIMDEC
 70
    1
  9
$DIMTDEC
 70
    2
  9
$DIMALTU
 70
    2
  9
$DIMALTTD
 70
    3
  9
$DIMTXSTY
  7
standard
  9
$DIMAUNIT
 70
    0
  9
$DIMADEC
 70
    1
  9
$DIMALTRND
 40
0
  9
$DIMAZIN
 70
    0
  9
$DIMDSEP
 70
    0
  9
$DIMATFIT
 70
    3
  9
$DIMFRAC
 70
    0
  9
$DIMLDRBLK
  1
STANDARD
  9
$DIMLUNIT
 70
    2
  9
$DIMLWD
 70
   -2
  9
$DIMLWE
 70
   -2
  9
$DIMTMOVE
 70
    0
  9
$DIMFXL
 40
1
  9
$DIMFXLON
 70
    0
  9
$DIMJOGANG
 40
0.7854
  9
$DIMTFILL
 70
    0
  9
$DIMTFILLCLR
 70
    0
  9
$DIMARCSYM
 70
    0
  9
$DIMLTYPE
  6

  9
$DIMLTEX1
  6

  9
$DIMLTEX2
  6

  9
$LUNITS
 70
    2
  9
$LUPREC
 70
    4
  9
$SKETCHINC
 40
1
  9
$FILLETRAD
 40
0
  9
$AUNITS
 70
    0
  9
$AUPREC
 70
    2
  9
$MENU
  1
.
  9
$ELEVATION
 40
0
  9
$PELEVATION
 40
0
  9
$THICKNESS
 40
0
  9
$LIMCHECK
 70
    0
  9
$CHAMFERA
 40
0
  9
$CHAMFERB
 40
0
  9
$CHAMFERC
 40
0
  9
$CHAMFERD
 40
0
  9
$SKPOLY
 70
    0
  9
$USRTIMER
 70
    1
  9
$ANGBASE
 50
0
  9
$ANGDIR
 70
    0
  9
$PDMODE
 70
   34
  9
$PDSIZE
 40
0
  9
$PLINEWID
 40
0
  9
$SPLFRAME
 70
    0
  9
$SPLINETYPE
 70
    2
  9
$SPLINESEGS
 70
    8
  9
$HANDSEED
  5
20000
  9
$SURFTAB1
 70
    6
  9
$SURFTAB2
 70
    6
  9
$SURFTYPE
 70
    6
  9
$SURFU
 70
    6
  9
$SURFV
 70
    6
  9
$UCSBASE
  2

  9
$UCSNAME
  2

  9
$UCSORG
 10
0
 20
0
 30
0
  9
$UCSXDIR
 10
1
 20
0
 30
0
  9
$UCSYDIR
 10
0
 20
1
 30
0
  9
$UCSORTHOREF
  2

  9
$UCSORTHOVIEW
 70
    0
  9
$UCSORGTOP
 10
0
 20
0
 30
0
  9
$UCSORGBOTTOM
 10
0
 20
0
 30
0
  9
$UCSORGLEFT
 10
0
 20
0
 30
0
  9
$UCSORGRIGHT
 10
0
 20
0
 30
0
  9
$UCSORGFRONT
 10
0
 20
0
 30
0
  9
$UCSORGBACK
 10
0
 20
0
 30
0
  9
$PUCSBASE
  2

  9
$PUCSNAME
  2

  9
$PUCSORG
 10
0
 20
0
 30
0
  9
$PUCSXDIR
 10
1
 20
0
 30
0
  9
$PUCSYDIR
 10
0
 20
1
 30
0
  9
$PUCSORTHOREF
  2

  9
$PUCSORTHOVIEW
 70
    0
  9
$PUCSORGTOP
 10
0
 20
0
 30
0
  9
$PUCSORGBOTTOM
 10
0
 20
0
 30
0
  9
$PUCSORGLEFT
 10
0
 20
0
 30
0
  9
$PUCSORGRIGHT
 10
0
 20
0
 30
0
  9
$PUCSORGFRONT
 10
0
 20
0
 30
0
  9
$PUCSORGBACK
 10
0
 20
0
 30
0
  9
$USERI1
 70
    0
  9
$USERI2
 70
    0
  9
$USERI3
 70
    0
  9
$USERI4
 70
    0
  9
$USERI5
 70
    0
  9
$USERR1
 40
0
  9
$USERR2
 40
0
  9
$USERR3
 40
0
  9
$USERR4
 40
0
  9
$USERR5
 40
0
  9
$WORLDVIEW
 70
    1
  9
$SHADEDGE
 70
    3
  9
$SHADEDIF
 70
   70
  9
$TILEMODE
 70
    1
  9
$MAXACTVP
 70
   64
  9
$PINSBASE
 10
0
 20
0
 30
0
  9
$PLIMCHECK
 70
    0
  9
$PEXTMIN
 10
0
 20
0
 30
0
  9
$PEXTMAX
 10
0
 20
0
 30
0
  9
$GRIDMODE
 70
    0
  9
$SNAPSTYLE
 70
    0
  9
$GRIDUNIT
 10
0
 20
0
  9
$PLIMMIN
 10
0
 20
0
  9
$PLIMMAX
 10
12
 20
9
  9
$UNITMODE
 70
    0
  9
$VISRETAIN
 70
    1
  9
$PLINEGEN
 70
    0
  9
$PSLTSCALE
 70
    1
  9
$TREEDEPTH
 70
 3020
  9
$CMLSTYLE
  2
Standard
  9
$CMLJUST
 70
    0
  9
$CMLSCALE
 40
20
  9
$PROXYGRAPHICS
 70
    1
  9
$MEASUREMENT
 70
    1
  9
$CELWEIGHT
370
   -1
  9
$ENDCAPS
280
    0
  9
$JOINSTYLE
280
    0
  9
$LWDISPLAY
290
    0
  9
$INSUNITS
 70
    4
  9
$HYPERLINKBASE
  1

  9
$STYLESHEET
  1

  9
$XEDIT
290
    1
  9
$CEPSNTYPE
380
    0
  9
$PSTYLEMODE
290
    1
  9
$EXTNAMES
290
    1
  9
$PSVPSCALE
 40
1
  9
$OLESTARTUP
290
    0
  9
$SORTENTS
280
  127
  9
$INDEXCTL
280
    0
  9
$HIDETEXT
280
    1
  9
$XCLIPFRAME
290
    0
  9
$HALOGAP
280
    0
  9
$OBSCOLOR
 70
  257
  9
$OBSLTYPE
280
    0
  9
$INTERSECTIONDISPLAY
280
    0
  9
$INTERSECTIONCOLOR
 70
  257
  9
$DIMASSOC
280
    1
  9
$PROJECTNAME
  1

  9
$CAMERADISPLAY
290
    0
  9
$LENSLENGTH
 40
50
  9
$CAMERAHEIGHT
 40
0
  9
$STEPSPERSEC
 40
2
  9
$STEPSIZE
 40
50
  9
$3DDWFPREC
 40
2
  9
$PSOLWIDTH
 40
5
  9
$PSOLHEIGHT
 40
80
  9
$LOFTANG1
 40
1.570796326794897
  9
$LOFTANG2
 40
1.570796326794897
  9
$LOFTMAG1
 40
0
  9
$LOFTMAG2
 40
0
  9
$LOFTPARAM
 70
    7
  9
$LOFTNORMALS
280
    1
  9
$LATITUDE
 40
1
  9
$LONGITUDE
 40
1
  9
$NORTHDIRECTION
 40
0
  9
$TIMEZONE
 70
-8000
  9
$LIGHTGLYPHDISPLAY
280
    1
  9
$TILEMODELIGHTSYNCH
280
    1
  9
$SOLIDHIST
280
    1
  9
$SHOWHIST
280
    1
  9
$DWFFRAME
280
    2
  9
$DGNFRAME
280
    0
  9
$REALWORLDSCALE
290
    1
  9
$INTERFERECOLOR
 62
    1
  9
$CSHADOW
280
    0
  9
$SHADOWPLANELOCATION
 40
0
  0
ENDSEC
  0
SECTION
  2
CLASSES
  0
ENDSEC
  0
SECTION
  2
TABLES
  0
TABLE
  2
VPORT
  5
8
330
0
100
AcDbSymbolTable
 70
    1
  0
VPORT
  5
31
330
2
100
AcDbSymbolTableRecord
100
AcDbViewportTableRecord
  2
*ACTIVE
 70
    0
 10
0
 20
0
 11
1
 21
1
 12
177.3545947495558
 22
376.81843437304
 13
0
 23
0
 14
10
 24
10
 15
10
 25
10
 16
0
 26
0
 36
1
 17
0
 27
0
 37
0
 40
776.7073851362661
 41
1.275990099009901
 42
50
 43
0
 44
0
 50
0
 51
0
 71
    0
 72
  100
 73
    1
 74
    3
 75
    0
 76
    0
 77
    0
 78
    0
281
    0
 65
    1
110
0
120
0
130
0
111
1
121
0
131
0
112
0
122
1
132
0
 79
    0
146
0
348
10020
 60
    7
 61
    5
292
1
282
    1
141
0
142
0
 63
  250
421
3358443
  0
ENDTAB
  0
TABLE
  2
LTYPE
  5
5
330
0
100
AcDbSymbolTable
 70
    4
  0
LTYPE
  5
14
330
5
100
AcDbSymbolTableRecord
100
AcDbLinetypeTableRecord
  2
ByBlock
 70
    0
  3

 72
   65
 73
    0
 40
0
  0
LTYPE
  5
15
330
5
100
AcDbSymbolTableRecord
100
AcDbLinetypeTableRecord
  2
ByLayer
 70
    0
  3

 72
   65
 73
    0
 40
0
  0
LTYPE
  5
16
330
5
100
AcDbSymbolTableRecord
100
AcDbLinetypeTableRecord
  2
Continuous
 70
    0
  3
Solid line
 72
   65
 73
    0
 40
0
  0
LTYPE
  5
32
330
5
100
AcDbSymbolTableRecord
100
AcDbLinetypeTableRecord
  2
DOT
 70
    0
  3
Dot . . . . . . . . . . . . . . . . . . . . . .
 72
   65
 73
    2
 40
6.35
 49
0
 74
    0
 49
-6.35
 74
    0
  0
LTYPE
  5
33
330
5
100
AcDbSymbolTableRecord
100
AcDbLinetypeTableRecord
  2
DOTTINY
 70
    0
  3
Dot (.15x) .....................................
 72
   65
 73
    2
 40
0.9525
 49
0
 74
    0
 49
-0.9525
 74
    0
  0
LTYPE
  5
34
330
5
100
AcDbSymbolTableRecord
100
AcDbLinetypeTableRecord
  2
DOT2
 70
    0
  3
Dot (.5x) .....................................
 72
   65
 73
    2
 40
3.175
 49
0
 74
    0
 49
-3.175
 74
    0
  0
LTYPE
  5
35
330
5
100
AcDbSymbolTableRecord
100
AcDbLinetypeTableRecord
  2
DOTX2
 70
    0
  3
Dot (2x) .  .  .  .  .  .  .  .  .  .  .  .  .
 72
   65
 73
    2
 40
12.7
 49
0
 74
    0
 49
-12.7
 74
    0
  0
LTYPE
  5
36
330
5
100
AcDbSymbolTableRecord
100
AcDbLinetypeTableRecord
  2
DASHED
 70
    0
  3
Dashed _ _ _ _ _ _ _ _ _ _ _ _ _ _ _ _ _
 72
   65
 73
    2
 40
19.05
 49
12.7
 74
    0
 49
-6.35
 74
    0
  0
LTYPE
  5
37
330
5
100
AcDbSymbolTableRecord
100
AcDbLinetypeTableRecord
  2
DASHEDTINY
 70
    0
  3
Dashed (.15x) _ _ _ _ _ _ _ _ _ _ _ _ _ _ _ _ _
 72
   65
 73
    2
 40
2.8575
 49
1.905
 74
    0
 49
-0.9525
 74
    0
  0
LTYPE
  5
38
330
5
100
AcDbSymbolTableRecord
100
AcDbLinetypeTableRecord
  2
DASHED2
 70
    0
  3
Dashed (.5x) _ _ _ _ _ _ _ _ _ _ _ _ _ _ _ _ _
 72
   65
 73
    2
 40
9.524999999999999
 49
6.35
 74
    0
 49
-3.175
 74
    0
  0
LTYPE
  5
39
330
5
100
AcDbSymbolTableRecord
100
AcDbLinetypeTableRecord
  2
DASHEDX2
 70
    0
  3
Dashed (2x) ____  ____  ____  ____  ____  ___
 72
   65
 73
    2
 40
38.09999999999999
 49
25.4
 74
    0
 49
-12.7
 74
    0
  0
LTYPE
  5
3A
330
5
100
AcDbSymbolTableRecord
100
AcDbLinetypeTableRecord
  2
DASHDOT
 70
    0
  3
Dash dot __ . __ . __ . __ . __ . __ . __ . __
 72
   65
 73
    4
 40
25.4
 49
12.7
 74
    0
 49
-6.35
 74
    0
 49
0
 74
    0
 49
-6.35
 74
    0
  0
LTYPE
  5
3B
330
5
100
AcDbSymbolTableRecord
100
AcDbLinetypeTableRecord
  2
DASHDOTTINY
 70
    0
  3
Dash dot (.15x) _._._._._._._._._._._._._._._.
 72
   65
 73
    4
 40
3.81
 49
1.905
 74
    0
 49
-0.9525
 74
    0
 49
0
 74
    0
 49
-0.9525
 74
    0
  0
LTYPE
  5
3C
330
5
100
AcDbSymbolTableRecord
100
AcDbLinetypeTableRecord
  2
DASHDOT2
 70
    0
  3
Dash dot (.5x) _._._._._._._._._._._._._._._.
 72
   65
 73
    4
 40
12.7
 49
6.35
 74
    0
 49
-3.175
 74
    0
 49
0
 74
    0
 49
-3.175
 74
    0
  0
LTYPE
  5
3D
330
5
100
AcDbSymbolTableRecord
100
AcDbLinetypeTableRecord
  2
DASHDOTX2
 70
    0
  3
Dash dot (2x) ____  .  ____  .  ____  .  ___
 72
   65
 73
    4
 40
50.8
 49
25.4
 74
    0
 49
-12.7
 74
    0
 49
0
 74
    0
 49
-12.7
 74
    0
  0
LTYPE
  5
3E
330
5
100
AcDbSymbolTableRecord
100
AcDbLinetypeTableRecord
  2
DIVIDE
 70
    0
  3
Divide ____ . . ____ . . ____ . . ____ . . ____
 72
   65
 73
    6
 40
31.75
 49
12.7
 74
    0
 49
-6.35
 74
    0
 49
0
 74
    0
 49
-6.35
 74
    0
 49
0
 74
    0
 49
-6.35
 74
    0
  0
LTYPE
  5
3F
330
5
100
AcDbSymbolTableRecord
100
AcDbLinetypeTableRecord
  2
DIVIDETINY
 70
    0
  3
Divide (.15x) __..__..__..__..__..__..__..__.._
 72
   65
 73
    6
 40
4.7625
 49
1.905
 74
    0
 49
-0.9525
 74
    0
 49
0
 74
    0
 49
-0.9525
 74
    0
 49
0
 74
    0
 49
-0.9525
 74
    0
  0
LTYPE
  5
40
330
5
100
AcDbSymbolTableRecord
100
AcDbLinetypeTableRecord
  2
DIVIDE2
 70
    0
  3
Divide (.5x) __..__..__..__..__..__..__..__.._
 72
   65
 73
    6
 40
15.875
 49
6.35
 74
    0
 49
-3.175
 74
    0
 49
0
 74
    0
 49
-3.175
 74
    0
 49
0
 74
    0
 49
-3.175
 74
    0
  0
LTYPE
  5
41
330
5
100
AcDbSymbolTableRecord
100
AcDbLinetypeTableRecord
  2
DIVIDEX2
 70
    0
  3
Divide (2x) ________  .  .  ________  .  .  _
 72
   65
 73
    6
 40
63.5
 49
25.4
 74
    0
 49
-12.7
 74
    0
 49
0
 74
    0
 49
-12.7
 74
    0
 49
0
 74
    0
 49
-12.7
 74
    0
  0
LTYPE
  5
42
330
5
100
AcDbSymbolTableRecord
100
AcDbLinetypeTableRecord
  2
BORDER
 70
    0
  3
Border __ __ . __ __ . __ __ . __ __ . __ __ .
 72
   65
 73
    6
 40
44.45
 49
12.7
 74
    0
 49
-6.35
 74
    0
 49
12.7
 74
    0
 49
-6.35
 74
    0
 49
0
 74
    0
 49
-6.35
 74
    0
  0
LTYPE
  5
43
330
5
100
AcDbSymbolTableRecord
100
AcDbLinetypeTableRecord
  2
BORDERTINY
 70
    0
  3
Border (.15x) __.__.__.__.__.__.__.__.__.__.__.
 72
   65
 73
    6
 40
6.6675
 49
1.905
 74
    0
 49
-0.9525
 74
    0
 49
1.905
 74
    0
 49
-0.9525
 74
    0
 49
0
 74
    0
 49
-0.9525
 74
    0
  0
LTYPE
  5
44
330
5
100
AcDbSymbolTableRecord
100
AcDbLinetypeTableRecord
  2
BORDER2
 70
    0
  3
Border (.5x) __.__.__.__.__.__.__.__.__.__.__.
 72
   65
 73
    6
 40
22.225
 49
6.35
 74
    0
 49
-3.175
 74
    0
 49
6.35
 74
    0
 49
-3.175
 74
    0
 49
0
 74
    0
 49
-3.175
 74
    0
  0
LTYPE
  5
45
330
5
100
AcDbSymbolTableRecord
100
AcDbLinetypeTableRecord
  2
BORDERX2
 70
    0
  3
Border (2x) ____  ____  .  ____  ____  .  ___
 72
   65
 73
    6
 40
88.89999999999999
 49
25.4
 74
    0
 49
-12.7
 74
    0
 49
25.4
 74
    0
 49
-12.7
 74
    0
 49
0
 74
    0
 49
-12.7
 74
    0
  0
LTYPE
  5
46
330
5
100
AcDbSymbolTableRecord
100
AcDbLinetypeTableRecord
  2
CENTER
 70
    0
  3
Center ____ _ ____ _ ____ _ ____ _ ____ _ ____
 72
   65
 73
    4
 40
50.8
 49
31.75
 74
    0
 49
-6.35
 74
    0
 49
6.35
 74
    0
 49
-6.35
 74
    0
  0
LTYPE
  5
47
330
5
100
AcDbSymbolTableRecord
100
AcDbLinetypeTableRecord
  2
CENTERTINY
 70
    0
  3
Center (.15x) ___ _ ___ _ ___ _ ___ _ ___ _ ___
 72
   65
 73
    4
 40
7.619999999999999
 49
4.7625
 74
    0
 49
-0.9525
 74
    0
 49
0.9525
 74
    0
 49
-0.9525
 74
    0
  0
LTYPE
  5
48
330
5
100
AcDbSymbolTableRecord
100
AcDbLinetypeTableRecord
  2
CENTER2
 70
    0
  3
Center (.5x) ___ _ ___ _ ___ _ ___ _ ___ _ ___
 72
   65
 73
    4
 40
28.575
 49
19.05
 74
    0
 49
-3.175
 74
    0
 49
3.175
 74
    0
 49
-3.175
 74
    0
  0
LTYPE
  5
49
330
5
100
AcDbSymbolTableRecord
100
AcDbLinetypeTableRecord
  2
CENTERX2
 70
    0
  3
Center (2x) ________  __  ________  __  _____
 72
   65
 73
    4
 40
101.6
 49
63.5
 74
    0
 49
-12.7
 74
    0
 49
12.7
 74
    0
 49
-12.7
 74
    0
  0
ENDTAB
  0
TABLE
  2
LAYER
  5
2
330
0
100
AcDbSymbolTable
 70
    1
  0
LAYER
  5
4A
330
2
100
AcDbSymbolTableRecord
100
AcDbLayerTableRecord
  2
 Hole points 6mm
 70
    0
 62
    3
  6
CONTINUOUS
370
    0
390
F
  0
LAYER
  5
10
330
2
100
AcDbSymbolTableRecord
100
AcDbLayerTableRecord
  2
0
 70
    0
 62
    7
  6
CONTINUOUS
370
   -3
390
F
  0
LAYER
  5
4B
330
2
100
AcDbSymbolTableRecord
100
AcDbLayerTableRecord
  2
6mm groove
 70
    0
 62
    2
  6
CONTINUOUS
370
   -3
390
F
  0
LAYER
  5
4C
330
2
100
AcDbSymbolTableRecord
100
AcDbLayerTableRecord
  2
Notes
 70
    0
 62
    7
  6
CONTINUOUS
370
    0
390
F
  0
LAYER
  5
4D
330
2
100
AcDbSymbolTableRecord
100
AcDbLayerTableRecord
  2
blocks
 70
    0
 62
    5
  6
CONTINUOUS
370
    0
390
F
  0
LAYER
  5
4E
330
2
100
AcDbSymbolTableRecord
100
AcDbLayerTableRecord
  2
constructio
 70
    0
 62
    4
  6
CONTINUOUS
370
    0
390
F
  0
LAYER
  5
4F
330
2
100
AcDbSymbolTableRecord
100
AcDbLayerTableRecord
  2
grill
 70
    0
 62
    6
  6
CONTINUOUS
370
    0
390
F
  0
LAYER
  5
50
330
2
100
AcDbSymbolTableRecord
100
AcDbLayerTableRecord
  2
hole points
 70
    0
 62
    1
  6
CONTINUOUS
370
    0
390
F
  0
ENDTAB
  0
TABLE
  2
STYLE
  5
3
330
0
100
AcDbSymbolTable
 70
    3
  0
STYLE
  5
51
330
2
100
AcDbSymbolTableRecord
100
AcDbTextStyleTableRecord
  2
cyrillic_ii
 70
    0
 40
0
 41
1
 50
0
 71
    0
 42
1
  3
cyrillic_ii
  4

  0
STYLE
  5
52
330
2
100
AcDbSymbolTableRecord
100
AcDbTextStyleTableRecord
  2
Standard
 70
    0
 40
0
 41
1
 50
0
 71
    0
 42
1
  3
txt
  4

  0
ENDTAB
  0
TABLE
  2
VIEW
  5
6
330
0
100
AcDbSymbolTable
 70
    0
  0
ENDTAB
  0
TABLE
  2
UCS
  5
7
330
0
100
AcDbSymbolTable
 70
    0
  0
ENDTAB
  0
TABLE
  2
APPID
  5
9
330
0
100
AcDbSymbolTable
 70
    1
  0
APPID
  5
12
330
9
100
AcDbSymbolTableRecord
100
AcDbRegAppTableRecord
  2
ACAD
 70
    0
  0
APPID
  5
53
330
9
100
AcDbSymbolTableRecord
100
AcDbRegAppTableRecord
  2
LibreCad
 70
    0
  0
ENDTAB
  0
TABLE
  2
DIMSTYLE
  5
A
330
0
100
AcDbSymbolTable
 70
    1
100
AcDbDimStyleTable
 71
    1
  0
DIMSTYLE
105
54
330
A
100
AcDbSymbolTableRecord
100
AcDbDimStyleTableRecord
  2
Standard
 70
    0
 40
5
 41
2.5
 42
0.625
 43
0.38
 44
1.25
 45
0
 46
0
 47
0
 48
0
 49
1
140
2.5
141
0.09
142
0
143
25.4
144
1
145
0
146
1
147
0.625
148
0
 71
    0
 72
    0
 73
    0
 74
    1
 75
    0
 76
    0
 77
    0
 78
    1
 79
    0
170
    0
171
    2
172
    0
173
    0
174
    0
175
    0
176
    0
177
    0
178
    0
179
    1
271
    1
272
    4
273
    2
274
    2
275
    0
276
    0
277
    2
278
    0
279
    0
280
    0
281
    0
282
    0
283
    1
284
    0
285
    0
286
    0
288
    0
289
    3
340
standard
341

371
   -2
372
   -2
  0
ENDTAB
  0
TABLE
  2
BLOCK_RECORD
  5
1
330
0
100
AcDbSymbolTable
 70
    2
  0
BLOCK_RECORD
  5
1F
330
1
100
AcDbSymbolTableRecord
100
AcDbBlockTableRecord
  2
*Model_Space
 70
    0
280
    1
281
    0
  0
BLOCK_RECORD
  5
1E
330
1
100
AcDbSymbolTableRecord
100
AcDbBlockTableRecord
  2
*Paper_Space
 70
    0
280
    1
281
    0
  0
BLOCK_RECORD
  5
55
330
1
100
AcDbSymbolTableRecord
100
AcDbBlockTableRecord
  2
*D1
 70
    0
280
    1
281
    0
  0
BLOCK_RECORD
  5
58
330
1
100
AcDbSymbolTableRecord
100
AcDbBlockTableRecord
  2
*D3
 70
    0
280
    1
281
    0
  0
BLOCK_RECORD
  5
5B
330
1
100
AcDbSymbolTableRecord
100
AcDbBlockTableRecord
  2
*D2
 70
    0
280
    1
281
    0
  0
ENDTAB
  0
ENDSEC
  0
SECTION
  2
BLOCKS
  0
BLOCK
  5
20
330
1F
100
AcDbEntity
  8
0
100
AcDbBlockBegin
  2
*Model_Space
 70
    0
 10
0
 20
0
 30
0
  3
*Model_Space
  1

  0
ENDBLK
  5
21
330
1F
100
AcDbEntity
  8
0
100
AcDbBlockEnd
  0
BLOCK
  5
1C
330
1B
100
AcDbEntity
  8
0
100
AcDbBlockBegin
  2
*Paper_Space
 70
    0
 10
0
 20
0
 30
0
  3
*Paper_Space
  1

  0
ENDBLK
  5
1D
330
1F
100
AcDbEntity
  8
0
100
AcDbBlockEnd
  0
BLOCK
  5
56
330
55
100
AcDbEntity
  8
0
100
AcDbBlockBegin
  2
*D1
 70
    1
 10
0
 20
0
  3
*D1
  1

  0
LINE
  5
5E
100
AcDbEntity
  8
Notes
  6
CONTINUOUS
 62
    7
370
    0
100
AcDbLine
 10
350.0446092406349
 20
135.5664093590898
 11
311.60040360149
 21
-16.18703395332416
  0
LINE
  5
5F
100
AcDbEntity
  8
Notes
  6
CONTINUOUS
 62
    7
370
    0
100
AcDbLine
 10
311.60040360149
 20
-16.18703395332416
 11
351.0562988627177
 21
-17.19872357540692
  0
SOLID
  5
60
100
AcDbEntity
  8
Notes
  6
CONTINUOUS
 62
    7
370
    0
100
AcDbTrace
 10
350.0446092406349
 20
135.5664093590898
 30
0
 11
348.9925987961256
 21
122.9380445824424
 31
0
 12
344.957229248395
 22
123.9603382012008
 32
0
 13
344.957229248395
 23
123.9603382012008
 33
0
  0
ENDBLK
  5
57
330
55
100
AcDbEntity
  8
0
100
AcDbBlockEnd
  0
BLOCK
  5
59
330
58
100
AcDbEntity
  8
0
100
AcDbBlockBegin
  2
*D3
 70
    1
 10
0
 20
0
  3
*D3
  1

  0
LINE
  5
61
100
AcDbEntity
  8
Notes
  6
CONTINUOUS
 62
    7
370
    0
100
AcDbLine
 10
247.8030512656182
 20
199.4031862398687
 11
232.6277069343767
 21
287.4201833610688
  0
LINE
  5
62
100
AcDbEntity
  8
Notes
  6
CONTINUOUS
 62
    7
370
    0
100
AcDbLine
 10
232.6277069343767
 20
287.4201833610688
 11
278.1537399281009
 21
287.4201833610688
  0
SOLID
  5
63
100
AcDbEntity
  8
Notes
  6
CONTINUOUS
 62
    7
370
    0
100
AcDbTrace
 10
247.8030512656182
 20
199.4031862398687
 30
0
 11
243.6280551741155
 21
211.3677894737149
 31
0
 12
247.7303744444297
 22
212.0750858996311
 32
0
 13
247.7303744444297
 23
212.0750858996311
 33
0
  0
ENDBLK
  5
5A
330
58
100
AcDbEntity
  8
0
100
AcDbBlockEnd
  0
BLOCK
  5
5C
330
5B
100
AcDbEntity
  8
0
100
AcDbBlockBegin
  2
*D2
 70
    1
 10
0
 20
0
  3
*D2
  1

  0
LINE
  5
64
100
AcDbEntity
  8
Notes
  6
CONTINUOUS
 62
    7
370
    0
100
AcDbLine
 10
337.9043337756418
 20
180.0807527307313
 11
322.7289894444004
 21
268.0977498519314
  0
LINE
  5
65
100
AcDbEntity
  8
Notes
  6
CONTINUOUS
 62
    7
370
    0
100
AcDbLine
 10
322.7289894444004
 20
268.0977498519314
 11
368.2550224381246
 21
268.0977498519314
  0
SOLID
  5
66
100
AcDbEntity
  8
Notes
  6
CONTINUOUS
 62
    7
370
    0
100
AcDbTrace
 10
337.9043337756418
 20
180.0807527307313
 30
0
 11
333.7293376841391
 21
192.0453559645775
 31
0
 12
337.8316569544533
 22
192.7526523904937
 32
0
 13
337.8316569544533
 23
192.7526523904937
 33
0
  0
ENDBLK
  5
5D
330
5B
100
AcDbEntity
  8
0
100
AcDbBlockEnd
  0
ENDSEC
  0
SECTION
  2
ENTITIES
  0
LWPOLYLINE
  5
67
100
AcDbEntity
  8
6mm groove
  6
ByLayer
 62
    7
370
   -1
100
AcDbPolyline
 90
    1
 70
    1
 43
0
 10
621.4144761866967
 20
25.25991060043157
  0
SPLINE
  5
68
100
AcDbEntity
  8
6mm groove
  6
ByLayer
 62
    5
370
   -1
100
AcDbSpline
210
0
220
0
230
0
 70
    8
 71
    3
 72
    8
 73
    4
 74
    0
 42
1e-07
 43
1e-07
 40
0
 40
0
 40
0
 40
0
 40
1
 40
1
 40
1
 40
1
 10
603.2069461866967
 20
150.6566336004316
 30
0
 10
603.2072461866967
 20
150.7250436004315
 30
0
 10
603.2049461866967
 20
150.7934386004316
 30
0
 10
603.2009461866967
 20
150.8617116004315
 30
0
  0
LWPOLYLINE
  5
69
100
AcDbEntity
  8
6mm groove
  6
ByLayer
 62
    5
370
   -1
100
AcDbPolyline
 90
    2
 70
    0
 43
0
 10
540.4353161866967
 20
206.0472586004316
 10
540.4354561866967
 20
206.0472586004316
  0
LWPOLYLINE
  5
6A
100
AcDbEntity
  8
6mm groove
  6
ByLayer
 62
    5
370
   -1
100
AcDbPolyline
 90
    1
 70
    1
 43
0
 10
416.4667061866967
 20
94.75038060043157
  0
CIRCLE
  5
6B
100
AcDbEntity
  8
0
  6
ByLayer
 62
  256
370
   -1
100
AcDbCircle
 10
611.184493433112
 20
47.97740132508362
 40
4.5
  0
LINE
  5
6C
100
AcDbEntity
  8
0
  6
ByLayer
 62
  256
370
   -1
100
AcDbLine
 10
596.7069461866967
 20
9.287500600431557
 11
603.2069461866967
 21
9.287500600431557
  0
SPLINE
  5
6D
100
AcDbEntity
  8
6mm groove
  6
ByLayer
 62
    5
370
   -1
100
AcDbSpline
210
0
220
0
230
0
 70
    8
 71
    3
 72
    8
 73
    4
 74
    0
 42
1e-07
 43
1e-07
 40
0
 40
0
 40
0
 40
0
 40
1
 40
1
 40
1
 40
1
 10
540.4354561866967
 20
206.0472586004316
 30
0
 10
539.2434061866967
 20
206.0478436004316
 30
0
 10
538.0430561866966
 20
206.0233986004316
 30
0
 10
536.8352861866966
 20
205.9744286004316
 30
0
  0
LWPOLYLINE
  5
6E
100
AcDbEntity
  8
6mm groove
  6
ByLayer
 62
  256
370
   -1
100
AcDbPolyline
 90
    2
 70
    0
 43
0
 10
603.2069461866967
 20
9.287500600431557
 10
603.2069461866967
 20
150.6566336004316
  0
LWPOLYLINE
  5
6F
100
AcDbEntity
  8
6mm groove
  6
ByLayer
 62
  256
370
   -1
100
AcDbPolyline
 90
    2
 70
    0
 43
0
 10
411.2909261866967
 20
94.75820060043155
 10
411.2909261866967
 20
9.287500600431557
  0
SPLINE
  5
70
100
AcDbEntity
  8
6mm groove
  6
ByLayer
 62
  256
370
   -1
100
AcDbSpline
210
0
220
0
230
0
 70
    8
 71
    2
 72
   11
 73
    8
 74
    0
 42
1e-07
 43
1e-07
 40
0
 40
0
 40
0
 40
0.1666666666666667
 40
0.3333333333333333
 40
0.5
 40
0.6666666666666666
 40
0.8333333333333334
 40
1
 40
1
 40
1
 10
411.2909261866967
 20
94.75820060043155
 30
0
 10
411.0974872989746
 20
114.6755078538124
 30
0
 10
441.0217711446997
 20
163.9044987144862
 30
0
 10
499.1825891836704
 20
200.3371364649176
 30
0
 10
550.1774113520106
 20
209.389127638012
 30
0
 10
589.7602446283265
 20
193.3580419106218
 30
0
 10
603.5184088978198
 20
163.035237839602
 30
0
 10
603.2069461866967
 20
150.6566336004316
 30
0
  0
SPLINE
  5
71
100
AcDbEntity
  8
6mm groove
  6
ByLayer
 62
  256
370
   -1
100
AcDbSpline
210
0
220
0
230
0
 70
    8
 71
    2
 72
   11
 73
    8
 74
    0
 42
1e-07
 43
1e-07
 40
0
 40
0
 40
0
 40
0.1666666666666667
 40
0.3333333333333333
 40
0.5
 40
0.6666666666666666
 40
0.8333333333333334
 40
1
 40
1
 40
1
 10
417.7906196524758
 20
94.82132627593388
 30
0
 10
417.6250549673299
 20
113.3772653696011
 30
0
 10
446.0238851657962
 20
159.3696697687141
 30
0
 10
501.4168695609582
 20
194.0445307456509
 30
0
 10
549.326583560452
 20
202.6636925160743
 30
0
 10
585.1642661555172
 20
188.3012056945668
 30
0
 10
596.9590718482511
 20
161.6095974786427
 30
0
 10
596.7090027684176
 20
150.8201307956467
 30
0
  0
LINE
  5
72
100
AcDbEntity
  8
6mm groove
  6
ByLayer
 62
  256
370
   -1
100
AcDbLine
 10
411.2909261866967
 20
9.287500600431557
 11
417.7909261866967
 21
9.287500600431557
  0
LINE
  5
73
100
AcDbEntity
  8
6mm groove
  6
ByLayer
 62
  256
370
   -1
100
AcDbLine
 10
470.0891461866967
 20
75.74132077005292
 11
470.0891461866967
 21
87.94132077005291
  0
LINE
  5
74
100
AcDbEntity
  8
6mm groove
  6
ByLayer
 62
  256
370
   -1
100
AcDbLine
 10
518.5891461866967
 20
75.74132077005292
 11
518.5891461866967
 21
87.94132077005291
  0
LINE
  5
75
100
AcDbEntity
  8
6mm groove
  6
ByLayer
 62
  256
370
   -1
100
AcDbLine
 10
552.3027961866967
 20
75.74132077005292
 11
552.3027961866967
 21
87.94132077005291
  0
LINE
  5
76
100
AcDbEntity
  8
6mm groove
  6
ByLayer
 62
  256
370
   -1
100
AcDbLine
 10
552.3027961866967
 20
87.94132077005291
 11
518.5891461866967
 21
87.94132077005291
  0
SPLINE
  5
77
100
AcDbEntity
  8
0
  6
ByLayer
 62
    7
370
   -1
100
AcDbSpline
210
0
220
0
230
0
 70
    8
 71
    3
 72
    8
 73
    4
 74
    0
 42
1e-07
 43
1e-07
 40
0
 40
0
 40
0
 40
0
 40
1
 40
1
 40
1
 40
1
 10
621.4144761866967
 20
25.25991060043157
 30
0
 10
634.5427661866967
 20
29.98391060043156
 30
0
 10
645.5803261866967
 20
42.15773060043156
 30
0
 10
651.6347461866967
 20
58.59113060043155
 30
0
  0
SPLINE
  5
78
100
AcDbEntity
  8
0
  6
ByLayer
 62
    7
370
   -1
100
AcDbSpline
210
0
220
0
230
0
 70
    8
 71
    3
 72
    8
 73
    4
 74
    0
 42
1e-07
 43
1e-07
 40
0
 40
0
 40
0
 40
0
 40
1
 40
1
 40
1
 40
1
 10
651.6347461866967
 20
58.59113060043155
 30
0
 10
655.5540461866967
 20
69.22915060043157
 30
0
 10
657.0378461866967
 20
77.87465060043156
 30
0
 10
657.0378461866967
 20
90.07255060043157
 30
0
  0
SPLINE
  5
79
100
AcDbEntity
  8
0
  6
ByLayer
 62
    7
370
   -1
100
AcDbSpline
210
0
220
0
230
0
 70
    8
 71
    3
 72
    8
 73
    4
 74
    0
 42
1e-07
 43
1e-07
 40
0
 40
0
 40
0
 40
0
 40
1
 40
1
 40
1
 40
1
 10
657.0378461866967
 20
90.07255060043157
 30
0
 10
654.4620461866966
 20
131.2913526004315
 30
0
 10
635.7665761866966
 20
159.2241426004315
 30
0
 10
610.9129461866967
 20
159.1931626004315
 30
0
  0
SPLINE
  5
7A
100
AcDbEntity
  8
0
  6
ByLayer
 62
    7
370
   -1
100
AcDbSpline
210
0
220
0
230
0
 70
    8
 71
    3
 72
    8
 73
    4
 74
    0
 42
1e-07
 43
1e-07
 40
0
 40
0
 40
0
 40
0
 40
1
 40
1
 40
1
 40
1
 10
610.9129461866967
 20
159.1931626004315
 30
0
 10
612.0518761866966
 20
201.5963656004316
 30
0
 10
567.7812061866966
 20
229.1046326004316
 30
0
 10
530.1794561866967
 20
226.8554326004316
 30
0
  0
SPLINE
  5
7B
100
AcDbEntity
  8
0
  6
ByLayer
 62
    7
370
   -1
100
AcDbSpline
210
0
220
0
230
0
 70
    8
 71
    3
 72
    8
 73
    4
 74
    0
 42
1e-07
 43
1e-07
 40
0
 40
0
 40
0
 40
0
 40
1
 40
1
 40
1
 40
1
 10
530.1794561866967
 20
226.8554326004316
 30
0
 10
511.9393861866967
 20
226.7207426004315
 30
0
 10
480.4023361866966
 20
216.7785526004316
 30
0
 10
473.3775661866966
 20
192.9034726004316
 30
0
  0
SPLINE
  5
7C
100
AcDbEntity
  8
0
  6
ByLayer
 62
    7
370
   -1
100
AcDbSpline
210
0
220
0
230
0
 70
    8
 71
    3
 72
    8
 73
    4
 74
    0
 42
1e-07
 43
1e-07
 40
0
 40
0
 40
0
 40
0
 40
1
 40
1
 40
1
 40
1
 10
377.4391361866967
 20
114.3579126004316
 30
0
 10
372.6704061866967
 20
111.3907106004316
 30
0
 10
365.2124661866967
 20
101.9183806004316
 30
0
 10
362.5566761866967
 20
95.45574060043155
 30
0
  0
SPLINE
  5
7D
100
AcDbEntity
  8
0
  6
ByLayer
 62
    7
370
   -1
100
AcDbSpline
210
0
220
0
230
0
 70
    8
 71
    3
 72
    8
 73
    4
 74
    0
 42
1e-07
 43
1e-07
 40
0
 40
0
 40
0
 40
0
 40
1
 40
1
 40
1
 40
1
 10
362.5566761866967
 20
95.45574060043155
 30
0
 10
358.6475461866967
 20
85.94320060043155
 30
0
 10
357.1160261866967
 20
74.39926060043156
 30
0
 10
358.3368061866967
 20
63.64794060043157
 30
0
  0
SPLINE
  5
7E
100
AcDbEntity
  8
0
  6
ByLayer
 62
    7
370
   -1
100
AcDbSpline
210
0
220
0
230
0
 70
    8
 71
    3
 72
    8
 73
    4
 74
    0
 42
1e-07
 43
1e-07
 40
0
 40
0
 40
0
 40
0
 40
1
 40
1
 40
1
 40
1
 10
358.3368061866967
 20
63.64794060043157
 30
0
 10
360.4637861866967
 20
44.91536060043155
 30
0
 10
370.0595661866967
 20
29.77947060043157
 30
0
 10
383.0338461866967
 20
24.69209060043156
 30
0
  0
SPLINE
  5
7F
100
AcDbEntity
  8
0
  6
ByLayer
 62
    7
370
   -1
100
AcDbSpline
210
0
220
0
230
0
 70
    8
 71
    3
 72
    8
 73
    4
 74
    0
 42
1e-07
 43
1e-07
 40
0
 40
0
 40
0
 40
0
 40
1
 40
1
 40
1
 40
1
 10
383.0338461866967
 20
24.69209060043156
 30
0
 10
385.6628361866967
 20
23.66126060043156
 30
0
 10
411.5836261866967
 20
23.35032060043156
 30
0
 10
501.0223261866967
 20
23.27683060043157
 30
0
  0
SPLINE
  5
80
100
AcDbEntity
  8
0
  6
ByLayer
 62
    7
370
   -1
100
AcDbSpline
210
0
220
0
230
0
 70
    8
 71
    3
 72
    8
 73
    4
 74
    0
 42
1e-07
 43
1e-07
 40
0
 40
0
 40
0
 40
0
 40
1
 40
1
 40
1
 40
1
 10
501.0223261866967
 20
23.27683060043157
 30
0
 10
612.7648661866966
 20
23.18483060043157
 30
0
 10
615.7865261866966
 20
23.23463060043156
 30
0
 10
621.4144761866967
 20
25.25991060043157
 30
0
  0
SPLINE
  5
81
100
AcDbEntity
  8
0
  6
ByLayer
 62
    7
370
   -1
100
AcDbSpline
210
0
220
0
230
0
 70
    8
 71
    3
 72
    8
 73
    4
 74
    0
 42
1e-07
 43
1e-07
 40
0
 40
0
 40
0
 40
0
 40
1
 40
1
 40
1
 40
1
 10
473.3775661866966
 20
192.9034726004316
 30
0
 10
418.0299661866967
 20
201.7091156004316
 30
0
 10
411.5620161866967
 20
137.1072326004316
 30
0
 10
407.9163564948392
 20
115.6294607579728
 30
0
  0
SPLINE
  5
82
100
AcDbEntity
  8
0
  6
ByLayer
 62
    7
370
   -1
100
AcDbSpline
210
0
220
0
230
0
 70
    8
 71
    3
 72
    8
 73
    4
 74
    0
 42
1e-07
 43
1e-07
 40
0
 40
0
 40
0
 40
0
 40
1
 40
1
 40
1
 40
1
 10
407.9163564948392
 20
115.6294607579728
 30
0
 10
390.4502161866967
 20
119.7388326004316
 30
0
 10
385.0756861866967
 20
119.1095126004316
 30
0
 10
377.4391361866967
 20
114.3579126004316
 30
0
  0
CIRCLE
  5
83
100
AcDbEntity
  8
0
  6
ByLayer
 62
  256
370
   -1
100
AcDbCircle
 10
403.2782760417851
 20
47.97740132508362
 40
4.5
  0
CIRCLE
  5
84
100
AcDbEntity
  8
0
  6
ByLayer
 62
  256
370
   -1
100
AcDbCircle
 10
549.3745369113662
 20
214.2087237888698
 40
4.5
  0
CIRCLE
  5
85
100
AcDbEntity
  8
0
  6
ByLayer
 62
  256
370
   -1
100
AcDbCircle
 10
437.4610550272961
 20
166.4464846584298
 40
4.5
  0
LINE
  5
86
100
AcDbEntity
  8
6mm groove
  6
ByLayer
 62
    2
370
   -1
100
AcDbLine
 10
518.5891461866967
 20
75.74132077005292
 11
552.3027961866967
 21
75.74132077005292
  0
LINE
  5
87
100
AcDbEntity
  8
6mm groove
  6
ByLayer
 62
  256
370
   -1
100
AcDbLine
 10
596.7069461866967
 20
9.287500600431557
 11
603.2069461866967
 21
9.287500600431557
  0
LINE
  5
88
100
AcDbEntity
  8
6mm groove
  6
ByLayer
 62
  256
370
   -1
100
AcDbLine
 10
596.7069461866967
 20
35.74132077005291
 11
596.7069461866967
 21
150.6566336004316
  0
LINE
  5
89
100
AcDbEntity
  8
6mm groove
  6
ByLayer
 62
  256
370
   -1
100
AcDbLine
 10
596.7069461866967
 20
29.54132077005289
 11
596.7069461866967
 21
9.287500600431557
  0
LINE
  5
8A
100
AcDbEntity
  8
6mm groove
  6
ByLayer
 62
  256
370
   -1
100
AcDbLine
 10
596.7069461866967
 20
35.74132077005291
 11
417.7909261866967
 21
35.74132077005291
  0
LINE
  5
8B
100
AcDbEntity
  8
6mm groove
  6
ByLayer
 62
  256
370
   -1
100
AcDbLine
 10
417.7909261866967
 20
29.54132077005289
 11
596.7069461866967
 21
29.54132077005289
  0
LINE
  5
8C
100
AcDbEntity
  8
6mm groove
  6
ByLayer
 62
  256
370
   -1
100
AcDbLine
 10
417.7909261866967
 20
9.287500600431557
 11
417.7909261866967
 21
29.54132077005289
  0
LINE
  5
8D
100
AcDbEntity
  8
6mm groove
  6
ByLayer
 62
  256
370
   -1
100
AcDbLine
 10
417.7909261866967
 20
75.74132077005292
 11
470.0891461866967
 21
75.74132077005292
  0
LINE
  5
8E
100
AcDbEntity
  8
6mm groove
  6
ByLayer
 62
  256
370
   -1
100
AcDbLine
 10
417.7909261866967
 20
87.94132077005288
 11
470.0891461866967
 21
87.94132077005291
  0
LINE
  5
8F
100
AcDbEntity
  8
6mm groove
  6
ByLayer
 62
  256
370
   -1
100
AcDbLine
 10
417.7909261866967
 20
94.75820060043155
 11
417.7909261866967
 21
87.94132077005294
  0
LINE
  5
90
100
AcDbEntity
  8
6mm groove
  6
ByLayer
 62
  256
370
   -1
100
AcDbLine
 10
417.7909261866967
 20
75.74132077005292
 11
417.7909261866967
 21
35.74132077005291
  0
LWPOLYLINE
  5
91
100
AcDbEntity
  8
grill
  6
ByLayer
 62
    6
370
   -1
100
AcDbPolyline
 90
    4
 70
    1
 43
0
 10
749.1946221866966
 20
128.7532406004316
 10
749.1946221866966
 20
73.16226060043157
 10
744.7802021866967
 20
73.16226060043157
 10
744.7802021866967
 20
128.7532406004316
  0
LWPOLYLINE
  5
92
100
AcDbEntity
  8
grill
  6
ByLayer
 62
    6
370
   -1
100
AcDbPolyline
 90
    4
 70
    1
 43
0
 10
740.3657821866967
 20
128.7532406004316
 10
740.3657821866967
 20
73.16226060043157
 10
735.9513521866967
 20
73.16226060043157
 10
735.9513521866967
 20
128.7532406004316
  0
LWPOLYLINE
  5
93
100
AcDbEntity
  8
grill
  6
ByLayer
 62
    6
370
   -1
100
AcDbPolyline
 90
    4
 70
    1
 43
0
 10
731.5369321866966
 20
128.7532406004316
 10
731.5369321866966
 20
73.16226060043157
 10
727.1225121866967
 20
73.16226060043157
 10
727.1225121866967
 20
128.7532406004316
  0
LWPOLYLINE
  5
94
100
AcDbEntity
  8
grill
  6
ByLayer
 62
    6
370
   -1
100
AcDbPolyline
 90
    4
 70
    1
 43
0
 10
722.7080811866966
 20
128.7532406004316
 10
722.7080811866966
 20
73.16226060043157
 10
718.2936611866967
 20
73.16226060043157
 10
718.2936611866967
 20
128.7532406004316
  0
LWPOLYLINE
  5
95
100
AcDbEntity
  8
grill
  6
ByLayer
 62
    6
370
   -1
100
AcDbPolyline
 90
    4
 70
    1
 43
0
 10
713.8792411866966
 20
128.7532406004316
 10
713.8792411866966
 20
73.16226060043157
 10
709.4648111866967
 20
73.16226060043157
 10
709.4648111866967
 20
128.7532406004316
  0
LWPOLYLINE
  5
96
100
AcDbEntity
  8
grill
  6
ByLayer
 62
    6
370
   -1
100
AcDbPolyline
 90
    4
 70
    1
 43
0
 10
705.0503911866966
 20
128.7532406004316
 10
705.0503911866966
 20
73.16226060043157
 10
700.6359711866967
 20
73.16226060043157
 10
700.6359711866967
 20
128.7532406004316
  0
LWPOLYLINE
  5
97
100
AcDbEntity
  8
grill
  6
ByLayer
 62
    6
370
   -1
100
AcDbPolyline
 90
    4
 70
    1
 43
0
 10
696.2215411866966
 20
128.7532406004316
 10
696.2215411866966
 20
73.16226060043157
 10
691.8071211866967
 20
73.16226060043157
 10
691.8071211866967
 20
128.7532406004316
  0
LWPOLYLINE
  5
98
100
AcDbEntity
  8
grill
  6
ByLayer
 62
    6
370
   -1
100
AcDbPolyline
 90
    4
 70
    1
 43
0
 10
802.1677031866966
 20
128.7532406004316
 10
802.1677031866966
 20
73.16226060043157
 10
797.7532831866966
 20
73.16226060043157
 10
797.7532831866966
 20
128.7532406004316
  0
LWPOLYLINE
  5
99
100
AcDbEntity
  8
grill
  6
ByLayer
 62
    6
370
   -1
100
AcDbPolyline
 90
    4
 70
    1
 43
0
 10
793.3388631866967
 20
128.7532406004316
 10
793.3388631866967
 20
73.16226060043157
 10
788.9244321866967
 20
73.16226060043157
 10
788.9244321866967
 20
128.7532406004316
  0
LWPOLYLINE
  5
9A
100
AcDbEntity
  8
grill
  6
ByLayer
 62
    6
370
   -1
100
AcDbPolyline
 90
    4
 70
    1
 43
0
 10
784.5100121866966
 20
128.7532406004316
 10
784.5100121866966
 20
73.16226060043157
 10
780.0955921866966
 20
73.16226060043157
 10
780.0955921866966
 20
128.7532406004316
  0
LWPOLYLINE
  5
9B
100
AcDbEntity
  8
grill
  6
ByLayer
 62
    6
370
   -1
100
AcDbPolyline
 90
    4
 70
    1
 43
0
 10
775.6811621866966
 20
128.7532406004316
 10
775.6811621866966
 20
73.16226060043157
 10
771.2667421866967
 20
73.16226060043157
 10
771.2667421866967
 20
128.7532406004316
  0
LWPOLYLINE
  5
9C
100
AcDbEntity
  8
grill
  6
ByLayer
 62
    6
370
   -1
100
AcDbPolyline
 90
    4
 70
    1
 43
0
 10
766.8523221866967
 20
128.7532406004316
 10
766.8523221866967
 20
73.16226060043157
 10
762.4378921866967
 20
73.16226060043157
 10
762.4378921866967
 20
128.7532406004316
  0
LWPOLYLINE
  5
9D
100
AcDbEntity
  8
grill
  6
ByLayer
 62
    6
370
   -1
100
AcDbPolyline
 90
    4
 70
    1
 43
0
 10
758.0234721866967
 20
128.7532406004316
 10
758.0234721866967
 20
73.16226060043157
 10
753.6090521866967
 20
73.16226060043157
 10
753.6090521866967
 20
128.7532406004316
  0
LINE
  5
9E
100
AcDbEntity
  8
grill
  6
ByLayer
 62
    6
370
   -1
100
AcDbLine
 10
684.4534061866967
 20
65.55750060043157
 11
684.4534061866967
 21
136.0978606004315
  0
LINE
  5
9F
100
AcDbEntity
  8
grill
  6
ByLayer
 62
    6
370
   -1
100
AcDbLine
 10
684.4534061866967
 20
136.0978606004315
 11
863.3534061866967
 21
136.0978606004315
  0
LINE
  5
A0
100
AcDbEntity
  8
grill
  6
ByLayer
 62
    6
370
   -1
100
AcDbLine
 10
863.3534061866967
 20
65.55750060043157
 11
684.4534061866967
 21
65.55750060043157
  0
LINE
  5
A1
100
AcDbEntity
  8
grill
  6
ByLayer
 62
  256
370
   -1
100
AcDbLine
 10
863.3534061866967
 20
65.55750060043151
 11
863.3534061866967
 21
136.0978606004315
  0
POINT
  5
A2
100
AcDbEntity
  8
 Hole points 6mm
  6
ByLayer
 62
  256
370
   -1
100
AcDbPoint
 10
468.6749326243236
 20
77.15553433242609
  0
POINT
  5
A3
100
AcDbEntity
  8
 Hole points 6mm
  6
ByLayer
 62
  256
370
   -1
100
AcDbPoint
 10
468.6749326243236
 20
86.5271072076798
  0
POINT
  5
A4
100
AcDbEntity
  8
 Hole points 6mm
  6
ByLayer
 62
  256
370
   -1
100
AcDbPoint
 10
550.8885826243236
 20
77.15553433242609
  0
POINT
  5
A5
100
AcDbEntity
  8
 Hole points 6mm
  6
ByLayer
 62
  256
370
   -1
100
AcDbPoint
 10
550.8885826243236
 20
86.5271072076798
  0
POINT
  5
A6
100
AcDbEntity
  8
 Hole points 6mm
  6
ByLayer
 62
  256
370
   -1
100
AcDbPoint
 10
520.0033597490698
 20
77.15553433242609
  0
POINT
  5
A7
100
AcDbEntity
  8
 Hole points 6mm
  6
ByLayer
 62
  256
370
   -1
100
AcDbPoint
 10
520.0033597490698
 20
86.5271072076798
  0
LWPOLYLINE
  5
A8
100
AcDbEntity
  8
0
  6
ByLayer
 62
    7
370
   -1
100
AcDbPolyline
 90
    1
 70
    1
 43
0
 10
384.0895272204405
 20
220.456610430877
  0
LWPOLYLINE
  5
A9
100
AcDbEntity
  8
0
  6
ByLayer
 62
    7
370
   -1
100
AcDbPolyline
 90
    4
 70
    1
 43
0
 10
327.0681672204405
 20
219.803830430877
 10
315.3335472204405
 20
219.803830430877
 10
315.3335472204405
 20
198.328347430877
 10
327.0681672204405
 20
198.328347430877
  0
SPLINE
  5
AA
100
AcDbEntity
  8
0
  6
ByLayer
 62
    7
370
   -1
100
AcDbSpline
210
0
220
0
230
0
 70
    8
 71
    3
 72
    8
 73
    4
 74
    0
 42
1e-07
 43
1e-07
 40
0
 40
0
 40
0
 40
0
 40
1
 40
1
 40
1
 40
1
 10
247.6029372204405
 20
213.548897430877
 30
0
 10
247.6029472204405
 20
211.5397174308771
 30
0
 10
249.2317172204405
 20
209.9109574308771
 30
0
 10
251.2408972204405
 20
209.9109674308771
 30
0
  0
SPLINE
  5
AB
100
AcDbEntity
  8
0
  6
ByLayer
 62
    7
370
   -1
100
AcDbSpline
210
0
220
0
230
0
 70
    8
 71
    3
 72
    8
 73
    4
 74
    0
 42
1e-07
 43
1e-07
 40
0
 40
0
 40
0
 40
0
 40
1
 40
1
 40
1
 40
1
 10
251.2408972204405
 20
209.9109674308771
 30
0
 10
253.2500672204405
 20
209.9109674308771
 30
0
 10
254.8788272204405
 20
211.5397274308771
 30
0
 10
254.8788372204405
 20
213.548897430877
 30
0
  0
SPLINE
  5
AC
100
AcDbEntity
  8
0
  6
ByLayer
 62
    7
370
   -1
100
AcDbSpline
210
0
220
0
230
0
 70
    8
 71
    3
 72
    8
 73
    4
 74
    0
 42
1e-07
 43
1e-07
 40
0
 40
0
 40
0
 40
0
 40
1
 40
1
 40
1
 40
1
 10
254.8788372204405
 20
213.548897430877
 30
0
 10
254.8788472204405
 20
215.558084430877
 30
0
 10
253.2500772204405
 20
217.1868554308771
 30
0
 10
251.2408972204405
 20
217.1868604308771
 30
0
  0
SPLINE
  5
AD
100
AcDbEntity
  8
0
  6
ByLayer
 62
    7
370
   -1
100
AcDbSpline
210
0
220
0
230
0
 70
    8
 71
    3
 72
    8
 73
    4
 74
    0
 42
1e-07
 43
1e-07
 40
0
 40
0
 40
0
 40
0
 40
1
 40
1
 40
1
 40
1
 10
251.2408972204405
 20
217.1868604308771
 30
0
 10
249.2317072204405
 20
217.186866430877
 30
0
 10
247.6029272204405
 20
215.5580924308771
 30
0
 10
247.6029372204405
 20
213.548897430877
 30
0
  0
LWPOLYLINE
  5
AE
100
AcDbEntity
  8
0
  6
ByLayer
 62
    7
370
   -1
100
AcDbPolyline
 90
    1
 70
    1
 43
0
 10
247.6029372204405
 20
213.548897430877
  0
LINE
  5
AF
100
AcDbEntity
  8
0
  6
ByLayer
 62
    7
370
   -1
100
AcDbLine
 10
413.2249572204405
 20
238.2276304308771
 11
413.2249572204405
 21
167.5633474308771
  0
LINE
  5
B0
100
AcDbEntity
  8
0
  6
ByLayer
 62
    7
370
   -1
100
AcDbLine
 10
413.2249572204405
 20
167.5633474308771
 11
360.9267372204405
 21
167.5633474308771
  0
LINE
  5
B1
100
AcDbEntity
  8
0
  6
ByLayer
 62
    7
370
   -1
100
AcDbLine
 10
360.9267372204405
 20
167.5633474308771
 11
360.9267372204405
 21
184.3690674308771
  0
LINE
  5
B2
100
AcDbEntity
  8
0
  6
ByLayer
 62
    7
370
   -1
100
AcDbLine
 10
278.7130872204405
 20
167.5633474308771
 11
278.7130872204405
 21
194.295117430877
  0
LINE
  5
B3
100
AcDbEntity
  8
0
  6
ByLayer
 62
    7
370
   -1
100
AcDbLine
 10
234.3249572204405
 20
238.227631410529
 11
413.2249572204405
 21
238.2276304308771
  0
LINE
  5
B4
100
AcDbEntity
  8
0
  6
ByLayer
 62
    7
370
   -1
100
AcDbLine
 10
278.7130872204405
 20
194.295117430877
 11
234.3249572204405
 21
194.295117430877
  0
LINE
  5
B5
100
AcDbEntity
  8
0
  6
ByLayer
 62
    7
370
   -1
100
AcDbLine
 10
360.9267372204405
 20
184.3690674308771
 11
312.4267372204405
 21
184.3690674308771
  0
LINE
  5
B6
100
AcDbEntity
  8
0
  6
ByLayer
 62
    7
370
   -1
100
AcDbLine
 10
312.4267372204405
 20
167.5633474308771
 11
278.7130872204405
 21
167.5633474308771
  0
CIRCLE
  5
B7
100
AcDbEntity
  8
0
  6
ByLayer
 62
  256
370
   -1
100
AcDbCircle
 10
384.0895172204405
 20
204.5517774308771
 40
16.2
  0
LINE
  5
B8
100
AcDbEntity
  8
0
  6
ByLayer
 62
  256
370
   -1
100
AcDbLine
 10
234.3249572204405
 20
238.2276304308771
 11
234.3249572204405
 21
194.295117430877
  0
LINE
  5
B9
100
AcDbEntity
  8
0
  6
ByLayer
 62
  256
370
   -1
100
AcDbLine
 10
312.4267372204405
 20
167.5633474308771
 11
312.4267372204405
 21
184.3690674308771
  0
LINE
  5
BA
100
AcDbEntity
  8
6mm groove
  6
ByLayer
 62
  256
370
   -1
100
AcDbLine
 10
406.0081072204405
 20
195.6318074308771
 11
406.0081072204405
 21
213.4717274308771
  0
LINE
  5
BB
100
AcDbEntity
  8
6mm groove
  6
ByLayer
 62
    2
370
   -1
100
AcDbLine
 10
401.0081072204405
 20
213.4717274308771
 11
406.0081072204405
 21
213.4717274308771
  0
LINE
  5
BC
100
AcDbEntity
  8
6mm groove
  6
ByLayer
 62
    2
370
   -1
100
AcDbLine
 10
401.0081072204405
 20
195.6318074308771
 11
401.0081072204405
 21
213.4717274308771
  0
LINE
  5
BD
100
AcDbEntity
  8
6mm groove
  6
ByLayer
 62
    2
370
   -1
100
AcDbLine
 10
406.0081072204405
 20
195.6318074308771
 11
401.0081072204405
 21
195.6318074308771
  0
POINT
  5
BE
100
AcDbEntity
  8
hole points
  6
ByLayer
 62
  256
370
   -1
100
AcDbPoint
 10
325.6539536580674
 20
199.7425609932502
  0
POINT
  5
BF
100
AcDbEntity
  8
hole points
  6
ByLayer
 62
  256
370
   -1
100
AcDbPoint
 10
316.7477607828136
 20
199.7425609932502
  0
POINT
  5
C0
100
AcDbEntity
  8
hole points
  6
ByLayer
 62
  256
370
   -1
100
AcDbPoint
 10
325.6539536580674
 20
218.3896168685039
  0
POINT
  5
C1
100
AcDbEntity
  8
hole points
  6
ByLayer
 62
  256
370
   -1
100
AcDbPoint
 10
316.7477607828136
 20
218.3896168685039
  0
POINT
  5
C2
100
AcDbEntity
  8
hole points
  6
ByLayer
 62
  256
370
   -1
100
AcDbPoint
 10
313.8409507828136
 20
182.9548538685039
  0
POINT
  5
C3
100
AcDbEntity
  8
hole points
  6
ByLayer
 62
  256
370
   -1
100
AcDbPoint
 10
359.5125236580674
 20
182.9548538685039
  0
POINT
  5
C4
100
AcDbEntity
  8
hole points
  6
ByLayer
 62
  256
370
   -1
100
AcDbPoint
 10
277.2988736580674
 20
192.8809038685039
  0
LWPOLYLINE
  5
C5
100
AcDbEntity
  8
6mm groove
  6
ByLayer
 62
    7
370
   -1
100
AcDbPolyline
 90
    1
 70
    1
 43
0
 10
45.87716136102583
 20
25.25991060043154
  0
SPLINE
  5
C6
100
AcDbEntity
  8
6mm groove
  6
ByLayer
 62
    5
370
   -1
100
AcDbSpline
210
0
220
0
230
0
 70
    8
 71
    3
 72
    8
 73
    4
 74
    0
 42
1e-07
 43
1e-07
 40
0
 40
0
 40
0
 40
0
 40
1
 40
1
 40
1
 40
1
 10
64.08469136102585
 20
150.6566336004316
 30
0
 10
64.08439136102581
 20
150.7250436004316
 30
0
 10
64.0866913610258
 20
150.7934386004316
 30
0
 10
64.09069136102582
 20
150.8617116004316
 30
0
  0
SPLINE
  5
C7
100
AcDbEntity
  8
6mm groove
  6
ByLayer
 62
    5
370
   -1
100
AcDbSpline
210
0
220
0
230
0
 70
    8
 71
    3
 72
    8
 73
    4
 74
    0
 42
1e-07
 43
1e-07
 40
0
 40
0
 40
0
 40
0
 40
1
 40
1
 40
1
 40
1
 10
126.8561813610258
 20
206.0472586004316
 30
0
 10
128.0482313610258
 20
206.0478436004316
 30
0
 10
129.2485813610259
 20
206.0233986004316
 30
0
 10
130.4563513610259
 20
205.9744286004315
 30
0
  0
LWPOLYLINE
  5
C8
100
AcDbEntity
  8
6mm groove
  6
ByLayer
 62
    5
370
   -1
100
AcDbPolyline
 90
    2
 70
    0
 43
0
 10
126.8563213610258
 20
206.0472586004316
 10
126.8561813610258
 20
206.0472586004316
  0
CIRCLE
  5
C9
100
AcDbEntity
  8
0
  6
ByLayer
 62
  256
370
   -1
100
AcDbCircle
 10
264.0133615059373
 20
47.97740132508362
 40
4.5
  0
CIRCLE
  5
CA
100
AcDbEntity
  8
0
  6
ByLayer
 62
  256
370
   -1
100
AcDbCircle
 10
56.10714411461046
 20
47.97740132508362
 40
4.5
  0
CIRCLE
  5
CB
100
AcDbEntity
  8
0
  6
ByLayer
 62
  256
370
   -1
100
AcDbCircle
 10
117.9171006363563
 20
214.2087237888698
 40
4.5
  0
CIRCLE
  5
CC
100
AcDbEntity
  8
0
  6
ByLayer
 62
  256
370
   -1
100
AcDbCircle
 10
229.8305825204264
 20
166.4464846584298
 40
4.5
  0
LWPOLYLINE
  5
CD
100
AcDbEntity
  8
6mm groove
  6
ByLayer
 62
    7
370
   -1
100
AcDbPolyline
 90
    1
 70
    1
 43
0
 10
99.72012136102578
 20
22.84805777005293
  0
LWPOLYLINE
  5
CE
100
AcDbEntity
  8
6mm groove
  6
ByLayer
 62
  256
370
   -1
100
AcDbPolyline
 90
    2
 70
    0
 43
0
 10
64.08469136102585
 20
9.287500600431557
 10
64.08469136102585
 20
150.6566336004316
  0
LWPOLYLINE
  5
CF
100
AcDbEntity
  8
6mm groove
  6
ByLayer
 62
  256
370
   -1
100
AcDbPolyline
 90
    2
 70
    0
 43
0
 10
256.0007113610258
 20
94.75820060043155
 10
256.0007113610258
 20
9.287500600431557
  0
SPLINE
  5
D0
100
AcDbEntity
  8
6mm groove
  6
ByLayer
 62
  256
370
   -1
100
AcDbSpline
210
0
220
0
230
0
 70
    8
 71
    2
 72
   11
 73
    8
 74
    0
 42
1e-07
 43
1e-07
 40
0
 40
0
 40
0
 40
0.1666666666666667
 40
0.3333333333333333
 40
0.5
 40
0.6666666666666666
 40
0.8333333333333334
 40
1
 40
1
 40
1
 10
256.0007113610258
 20
94.75820060043155
 30
0
 10
256.1941502487489
 20
114.6755078538126
 30
0
 10
226.2698664030227
 20
163.9044987144862
 30
0
 10
168.1090483640521
 20
200.3371364649174
 30
0
 10
117.114226195712
 20
209.389127638012
 30
0
 10
77.5313929193961
 20
193.3580419106218
 30
0
 10
63.77322864990276
 20
163.035237839602
 30
0
 10
64.08469136102585
 20
150.6566336004316
 30
0
  0
SPLINE
  5
D1
100
AcDbEntity
  8
6mm groove
  6
ByLayer
 62
  256
370
   -1
100
AcDbSpline
210
0
220
0
230
0
 70
    8
 71
    2
 72
   11
 73
    8
 74
    0
 42
1e-07
 43
1e-07
 40
0
 40
0
 40
0
 40
0.1666666666666667
 40
0.3333333333333333
 40
0.5
 40
0.6666666666666666
 40
0.8333333333333334
 40
1
 40
1
 40
1
 10
249.5010178952467
 20
94.82132627593388
 30
0
 10
249.6665825803922
 20
113.3772653696011
 30
0
 10
221.2677523819263
 20
159.3696697687141
 30
0
 10
165.8747679867645
 20
194.0445307456509
 30
0
 10
117.9650539872706
 20
202.6636925160743
 30
0
 10
82.12737139220519
 20
188.3012056945668
 30
0
 10
70.33256569947142
 20
161.6095974786427
 30
0
 10
70.58263477930493
 20
150.8201307956467
 30
0
  0
LINE
  5
D2
100
AcDbEntity
  8
6mm groove
  6
ByLayer
 62
  256
370
   -1
100
AcDbLine
 10
256.0007113610258
 20
9.287500600431557
 11
249.5007113610258
 21
9.287500600431557
  0
LINE
  5
D3
100
AcDbEntity
  8
6mm groove
  6
ByLayer
 62
  256
370
   -1
100
AcDbLine
 10
70.58469136102585
 20
9.287500600431557
 11
64.08469136102585
 21
9.287500600431557
  0
LWPOLYLINE
  5
D4
100
AcDbEntity
  8
6mm groove
  6
ByLayer
 62
    7
370
   -1
100
AcDbPolyline
 90
    1
 70
    1
 43
0
 10
236.2067113610258
 20
29.75577077005293
  0
SPLINE
  5
D5
100
AcDbEntity
  8
0
  6
ByLayer
 62
    7
370
   -1
100
AcDbSpline
210
0
220
0
230
0
 70
    8
 71
    3
 72
    8
 73
    4
 74
    0
 42
1e-07
 43
1e-07
 40
0
 40
0
 40
0
 40
0
 40
1
 40
1
 40
1
 40
1
 10
289.8525013610258
 20
114.3579126004316
 30
0
 10
294.6212313610258
 20
111.3907106004316
 30
0
 10
302.0791713610258
 20
101.9183806004316
 30
0
 10
304.7349613610259
 20
95.45574060043155
 30
0
  0
SPLINE
  5
D6
100
AcDbEntity
  8
0
  6
ByLayer
 62
    7
370
   -1
100
AcDbSpline
210
0
220
0
230
0
 70
    8
 71
    3
 72
    8
 73
    4
 74
    0
 42
1e-07
 43
1e-07
 40
0
 40
0
 40
0
 40
0
 40
1
 40
1
 40
1
 40
1
 10
45.87716136102583
 20
25.25991060043154
 30
0
 10
32.74887136102583
 20
29.98391060043156
 30
0
 10
21.71131136102585
 20
42.15773060043156
 30
0
 10
15.6568913610258
 20
58.59113060043161
 30
0
  0
SPLINE
  5
D7
100
AcDbEntity
  8
0
  6
ByLayer
 62
    7
370
   -1
100
AcDbSpline
210
0
220
0
230
0
 70
    8
 71
    3
 72
    8
 73
    4
 74
    0
 42
1e-07
 43
1e-07
 40
0
 40
0
 40
0
 40
0
 40
1
 40
1
 40
1
 40
1
 10
15.6568913610258
 20
58.59113060043161
 30
0
 10
11.73759136102578
 20
69.22915060043157
 30
0
 10
10.2537913610258
 20
77.87465060043156
 30
0
 10
10.2537913610258
 20
90.07255060043157
 30
0
  0
SPLINE
  5
D8
100
AcDbEntity
  8
0
  6
ByLayer
 62
    7
370
   -1
100
AcDbSpline
210
0
220
0
230
0
 70
    8
 71
    3
 72
    8
 73
    4
 74
    0
 42
1e-07
 43
1e-07
 40
0
 40
0
 40
0
 40
0
 40
1
 40
1
 40
1
 40
1
 10
10.2537913610258
 20
90.07255060043157
 30
0
 10
12.82959136102588
 20
131.2913526004316
 30
0
 10
31.52506136102588
 20
159.2241426004316
 30
0
 10
56.37869136102583
 20
159.1931626004316
 30
0
  0
SPLINE
  5
D9
100
AcDbEntity
  8
0
  6
ByLayer
 62
    7
370
   -1
100
AcDbSpline
210
0
220
0
230
0
 70
    8
 71
    3
 72
    8
 73
    4
 74
    0
 42
1e-07
 43
1e-07
 40
0
 40
0
 40
0
 40
0
 40
1
 40
1
 40
1
 40
1
 10
56.37869136102583
 20
159.1931626004316
 30
0
 10
55.23976136102587
 20
201.5963656004316
 30
0
 10
99.51043136102587
 20
229.1046326004316
 30
0
 10
137.1121813610258
 20
226.8554326004316
 30
0
  0
SPLINE
  5
DA
100
AcDbEntity
  8
0
  6
ByLayer
 62
    7
370
   -1
100
AcDbSpline
210
0
220
0
230
0
 70
    8
 71
    3
 72
    8
 73
    4
 74
    0
 42
1e-07
 43
1e-07
 40
0
 40
0
 40
0
 40
0
 40
1
 40
1
 40
1
 40
1
 10
137.1121813610258
 20
226.8554326004316
 30
0
 10
155.3522513610258
 20
226.7207426004315
 30
0
 10
186.8893013610259
 20
216.7785526004317
 30
0
 10
193.9140713610259
 20
192.9034726004316
 30
0
  0
SPLINE
  5
DB
100
AcDbEntity
  8
0
  6
ByLayer
 62
    7
370
   -1
100
AcDbSpline
210
0
220
0
230
0
 70
    8
 71
    3
 72
    8
 73
    4
 74
    0
 42
1e-07
 43
1e-07
 40
0
 40
0
 40
0
 40
0
 40
1
 40
1
 40
1
 40
1
 10
304.7349613610259
 20
95.45574060043155
 30
0
 10
308.6440913610259
 20
85.94320060043155
 30
0
 10
310.1756113610259
 20
74.39926060043156
 30
0
 10
308.9548313610258
 20
63.64794060043157
 30
0
  0
SPLINE
  5
DC
100
AcDbEntity
  8
0
  6
ByLayer
 62
    7
370
   -1
100
AcDbSpline
210
0
220
0
230
0
 70
    8
 71
    3
 72
    8
 73
    4
 74
    0
 42
1e-07
 43
1e-07
 40
0
 40
0
 40
0
 40
0
 40
1
 40
1
 40
1
 40
1
 10
308.9548313610258
 20
63.64794060043157
 30
0
 10
306.8278513610259
 20
44.91536060043155
 30
0
 10
297.2320713610258
 20
29.77947060043157
 30
0
 10
284.2577913610259
 20
24.69209060043156
 30
0
  0
SPLINE
  5
DD
100
AcDbEntity
  8
0
  6
ByLayer
 62
    7
370
   -1
100
AcDbSpline
210
0
220
0
230
0
 70
    8
 71
    3
 72
    8
 73
    4
 74
    0
 42
1e-07
 43
1e-07
 40
0
 40
0
 40
0
 40
0
 40
1
 40
1
 40
1
 40
1
 10
284.2577913610259
 20
24.69209060043156
 30
0
 10
281.6288013610258
 20
23.66126060043156
 30
0
 10
255.7080113610258
 20
23.35032060043156
 30
0
 10
166.2693113610258
 20
23.27683060043157
 30
0
  0
SPLINE
  5
DE
100
AcDbEntity
  8
0
  6
ByLayer
 62
    7
370
   -1
100
AcDbSpline
210
0
220
0
230
0
 70
    8
 71
    3
 72
    8
 73
    4
 74
    0
 42
1e-07
 43
1e-07
 40
0
 40
0
 40
0
 40
0
 40
1
 40
1
 40
1
 40
1
 10
166.2693113610258
 20
23.27683060043157
 30
0
 10
54.52677136102588
 20
23.18483060043157
 30
0
 10
51.50511136102588
 20
23.23463060043156
 30
0
 10
45.87716136102583
 20
25.25991060043154
 30
0
  0
SPLINE
  5
DF
100
AcDbEntity
  8
0
  6
ByLayer
 62
    7
370
   -1
100
AcDbSpline
210
0
220
0
230
0
 70
    8
 71
    3
 72
    8
 73
    4
 74
    0
 42
1e-07
 43
1e-07
 40
0
 40
0
 40
0
 40
0
 40
1
 40
1
 40
1
 40
1
 10
193.9140713610259
 20
192.9034726004316
 30
0
 10
249.2616713610258
 20
201.7091156004316
 30
0
 10
255.7296213610258
 20
137.1072326004316
 30
0
 10
259.3752810528833
 20
115.6294607579728
 30
0
  0
SPLINE
  5
E0
100
AcDbEntity
  8
0
  6
ByLayer
 62
    7
370
   -1
100
AcDbSpline
210
0
220
0
230
0
 70
    8
 71
    3
 72
    8
 73
    4
 74
    0
 42
1e-07
 43
1e-07
 40
0
 40
0
 40
0
 40
0
 40
1
 40
1
 40
1
 40
1
 10
259.3752810528833
 20
115.6294607579728
 30
0
 10
276.8414213610258
 20
119.7388326004316
 30
0
 10
282.2159513610259
 20
119.1095126004316
 30
0
 10
289.8525013610258
 20
114.3579126004316
 30
0
  0
LINE
  5
E1
100
AcDbEntity
  8
6mm groove
  6
ByLayer
 62
  256
370
   -1
100
AcDbLine
 10
249.5007113610258
 20
29.54132077005292
 11
249.5007113610258
 21
9.287500600431557
  0
LINE
  5
E2
100
AcDbEntity
  8
6mm groove
  6
ByLayer
 62
  256
370
   -1
100
AcDbLine
 10
70.58469136102585
 20
35.74132077005292
 11
249.5007113610258
 21
35.74132077005291
  0
LINE
  5
E3
100
AcDbEntity
  8
6mm groove
  6
ByLayer
 62
  256
370
   -1
100
AcDbLine
 10
249.5007113610258
 20
29.54132077005292
 11
70.58469136102585
 21
29.54132077005288
  0
LINE
  5
E4
100
AcDbEntity
  8
6mm groove
  6
ByLayer
 62
  256
370
   -1
100
AcDbLine
 10
70.58469136102585
 20
29.54132077005288
 11
70.58469136102585
 21
9.287500600431557
  0
LINE
  5
E5
100
AcDbEntity
  8
6mm groove
  6
ByLayer
 62
    5
370
   -1
100
AcDbLine
 10
250.8249313610258
 20
94.75038060043157
 11
250.8249313610258
 21
94.75038060043157
  0
LINE
  5
E6
100
AcDbEntity
  8
6mm groove
  6
ByLayer
 62
  256
370
   -1
100
AcDbLine
 10
70.58469136102585
 20
87.94132077005291
 11
70.58469136102585
 21
150.6566336004316
  0
LINE
  5
E7
100
AcDbEntity
  8
6mm groove
  6
ByLayer
 62
  256
370
   -1
100
AcDbLine
 10
70.58469136102585
 20
75.74132077005292
 11
70.58469136102585
 21
35.74132077005292
  0
LINE
  5
E8
100
AcDbEntity
  8
6mm groove
  6
ByLayer
 62
  256
370
   -1
100
AcDbLine
 10
249.5007113610258
 20
75.74132077005292
 11
70.58469136102585
 21
75.74132077005292
  0
LINE
  5
E9
100
AcDbEntity
  8
6mm groove
  6
ByLayer
 62
  256
370
   -1
100
AcDbLine
 10
70.58469136102585
 20
87.94132077005291
 11
249.5007113610258
 21
87.94132077005291
  0
LINE
  5
EA
100
AcDbEntity
  8
6mm groove
  6
ByLayer
 62
  256
370
   -1
100
AcDbLine
 10
249.5007113610258
 20
94.75820060043155
 11
249.5007113610258
 21
87.94132077005291
  0
LINE
  5
EB
100
AcDbEntity
  8
6mm groove
  6
ByLayer
 62
  256
370
   -1
100
AcDbLine
 10
249.5007113610258
 20
75.74132077005292
 11
249.5007113610258
 21
35.74132077005291
  0
LINE
  5
EC
100
AcDbEntity
  8
0
  6
ByLayer
 62
    7
370
   -1
100
AcDbLine
 10
313.956041767298
 20
145.3627468320679
 11
313.956041767298
 21
147.8416678320679
  0
LINE
  5
ED
100
AcDbEntity
  8
0
  6
ByLayer
 62
    7
370
   -1
100
AcDbLine
 10
313.956041767298
 20
147.8416678320679
 11
304.759441767298
 21
144.5758178320679
  0
LINE
  5
EE
100
AcDbEntity
  8
0
  6
ByLayer
 62
  256
370
   -1
100
AcDbLine
 10
348.5750817595573
 20
136.4997503320679
 11
304.637516767298
 21
136.4997503320678
  0
LINE
  5
EF
100
AcDbEntity
  8
0
  6
ByLayer
 62
    7
370
   -1
100
AcDbLine
 10
304.759441767298
 20
144.5758178320679
 11
304.7293378377476
 21
136.4997503320678
  0
ARC
  5
F0
100
AcDbEntity
  8
0
  6
ByLayer
 62
  256
370
   -1
100
AcDbCircle
 10
350.898871767298
 20
134.2997503320678
 40
3.20000000001182
100
AcDbArc
 50
223.4325365582153
 51
136.5674634424095
  0
ARC
  5
F1
100
AcDbEntity
  8
0
  6
ByLayer
 62
  256
370
   -1
100
AcDbCircle
 10
357.898871767298
 20
142.9750877739115
 40
5
100
AcDbArc
 50
0
 51
89.99997774810682
  0
LINE
  5
F2
100
AcDbEntity
  8
0
  6
ByLayer
 62
    7
370
   -1
100
AcDbLine
 10
362.898871767298
 20
125.6244148320678
 11
362.898871767298
 21
142.9750877739115
  0
LINE
  5
F3
100
AcDbEntity
  8
0
  6
ByLayer
 62
  256
370
   -1
100
AcDbLine
 10
326.256041767298
 20
145.3627468320679
 11
326.256041767298
 21
147.8416678320679
  0
LINE
  5
F4
100
AcDbEntity
  8
0
  6
ByLayer
 62
    7
370
   -1
100
AcDbLine
 10
357.898873709142
 20
147.9750877739111
 11
326.256041767298
 21
147.9751000629997
  0
LINE
  5
F5
100
AcDbEntity
  8
0
  6
ByLayer
 62
    7
370
   -1
100
AcDbLine
 10
326.256041767298
 20
145.4175666716598
 11
313.956041767298
 21
145.3627468320679
  0
LINE
  5
F6
100
AcDbEntity
  8
0
  6
ByLayer
 62
    7
370
   -1
100
AcDbLine
 10
313.956041767298
 20
123.2367557739115
 11
313.956041767298
 21
120.7578347739115
  0
LINE
  5
F7
100
AcDbEntity
  8
0
  6
ByLayer
 62
    7
370
   -1
100
AcDbLine
 10
313.956041767298
 20
120.7578347739115
 11
304.759441767298
 21
124.0236847739115
  0
LINE
  5
F8
100
AcDbEntity
  8
0
  6
ByLayer
 62
  256
370
   -1
100
AcDbLine
 10
348.5750817595573
 20
132.0997522739115
 11
304.637516767298
 21
132.0997522739116
  0
LINE
  5
F9
100
AcDbEntity
  8
0
  6
ByLayer
 62
    7
370
   -1
100
AcDbLine
 10
304.759441767298
 20
124.0236847739115
 11
304.7293378377476
 21
132.0997522739116
  0
ARC
  5
FA
100
AcDbEntity
  8
0
  6
ByLayer
 62
  256
370
   -1
100
AcDbCircle
 10
357.898871767298
 20
125.6244148320679
 40
5
100
AcDbArc
 50
270.0000222518932
 51
360
  0
LINE
  5
FB
100
AcDbEntity
  8
0
  6
ByLayer
 62
  256
370
   -1
100
AcDbLine
 10
326.256041767298
 20
123.2367557739115
 11
326.256041767298
 21
120.7578347739115
  0
LINE
  5
FC
100
AcDbEntity
  8
0
  6
ByLayer
 62
    7
370
   -1
100
AcDbLine
 10
357.898873709142
 20
120.6244148320683
 11
326.256041767298
 21
120.6244025429797
  0
LINE
  5
FD
100
AcDbEntity
  8
0
  6
ByLayer
 62
    7
370
   -1
100
AcDbLine
 10
326.256041767298
 20
123.1819359343196
 11
313.956041767298
 21
123.2367557739115
  0
LWPOLYLINE
  5
FE
100
AcDbEntity
  8
blocks
  6
ByLayer
 62
  256
370
   -1
100
AcDbPolyline
 90
    2
 70
    0
 43
0
 10
333.2069461866967
 20
349.2875006004315
 10
333.2069461866967
 20
490.6566336004316
  0
LWPOLYLINE
  5
FF
100
AcDbEntity
  8
blocks
  6
ByLayer
 62
  256
370
   -1
100
AcDbPolyline
 90
    2
 70
    0
 43
0
 10
141.2909261866967
 20
434.7582006004316
 10
141.2909261866967
 20
349.2875006004315
  0
SPLINE
  5
100
100
AcDbEntity
  8
blocks
  6
ByLayer
 62
  256
370
   -1
100
AcDbSpline
210
0
220
0
230
0
 70
    8
 71
    2
 72
   11
 73
    8
 74
    0
 42
1e-07
 43
1e-07
 40
0
 40
0
 40
0
 40
0.1666666666666667
 40
0.3333333333333333
 40
0.5
 40
0.6666666666666666
 40
0.8333333333333334
 40
1
 40
1
 40
1
 10
141.2909261866967
 20
434.7582006004316
 30
0
 10
141.0974872989746
 20
454.6755078538125
 30
0
 10
171.0217711446997
 20
503.9044987144861
 30
0
 10
229.1825891836703
 20
540.3371364649175
 30
0
 10
280.1774113520106
 20
549.389127638012
 30
0
 10
319.7602446283264
 20
533.3580419106218
 30
0
 10
333.5184088978197
 20
503.0352378396021
 30
0
 10
333.2069461866967
 20
490.6566336004316
 30
0
  0
LINE
  5
101
100
AcDbEntity
  8
blocks
  6
ByLayer
 62
  256
370
   -1
100
AcDbLine
 10
333.2069461866967
 20
349.2875006004315
 11
380
 21
350
  0
LINE
  5
102
100
AcDbEntity
  8
blocks
  6
ByLayer
 62
  256
370
   -1
100
AcDbLine
 10
380
 20
350
 11
380
 21
590
  0
LINE
  5
103
100
AcDbEntity
  8
blocks
  6
ByLayer
 62
  256
370
   -1
100
AcDbLine
 10
380
 20
590
 11
90
 21
590
  0
LINE
  5
104
100
AcDbEntity
  8
blocks
  6
ByLayer
 62
  256
370
   -1
100
AcDbLine
 10
90
 20
590
 11
90
 21
350
  0
LINE
  5
105
100
AcDbEntity
  8
blocks
  6
ByLayer
 62
  256
370
   -1
100
AcDbLine
 10
90
 20
350
 11
141.2909261866967
 21
349.2875006004315
  0
SPLINE
  5
106
100
AcDbEntity
  8
blocks
  6
ByLayer
 62
  256
370
   -1
100
AcDbSpline
210
0
220
0
230
0
 70
    8
 71
    2
 72
   11
 73
    8
 74
    0
 42
1e-07
 43
1e-07
 40
0
 40
0
 40
0
 40
0.1666666666666667
 40
0.3333333333333333
 40
0.5
 40
0.6666666666666666
 40
0.8333333333333334
 40
1
 40
1
 40
1
 10
148.3508225340724
 20
433.1400448778182
 30
0
 10
148.1852578489273
 20
451.6959839714856
 30
0
 10
176.5840880473927
 20
497.6883883705984
 30
0
 10
231.9770724425547
 20
532.3632493475351
 30
0
 10
279.8867864420485
 20
540.9824111179587
 30
0
 10
315.7244690371139
 20
526.6199242964511
 30
0
 10
327.5192747298476
 20
499.9283160805269
 30
0
 10
327.2692056500142
 20
489.138849397531
 30
0
  0
LINE
  5
107
100
AcDbEntity
  8
blocks
  6
ByLayer
 62
  256
370
   -1
100
AcDbLine
 10
327.2671490682932
 20
374.0600393719373
 11
327.2671490682932
 21
488.9753522023159
  0
LINE
  5
108
100
AcDbEntity
  8
blocks
  6
ByLayer
 62
  256
370
   -1
100
AcDbLine
 10
327.2671490682932
 20
367.8600393719372
 11
327.2671490682932
 21
347.6062192023159
  0
LINE
  5
109
100
AcDbEntity
  8
blocks
  6
ByLayer
 62
  256
370
   -1
100
AcDbLine
 10
148.3511290682932
 20
347.6062192023159
 11
148.3511290682932
 21
367.8600393719372
  0
LINE
  5
10A
100
AcDbEntity
  8
blocks
  6
ByLayer
 62
  256
370
   -1
100
AcDbLine
 10
148.3511290682932
 20
433.0769192023159
 11
148.3511290682932
 21
426.2600393719372
  0
LINE
  5
10B
100
AcDbEntity
  8
blocks
  6
ByLayer
 62
  256
370
   -1
100
AcDbLine
 10
148.3511290682932
 20
414.0600393719373
 11
148.3511290682932
 21
374.0600393719373
  0
LINE
  5
10C
100
AcDbEntity
  8
blocks
  6
ByLayer
 62
  256
370
   -1
100
AcDbLine
 10
148.3511290682932
 20
414.0600393719373
 11
148.3511290682932
 21
426.2600393719372
  0
LINE
  5
10D
100
AcDbEntity
  8
blocks
  6
ByLayer
 62
  256
370
   -1
100
AcDbLine
 10
148.3511290682932
 20
367.8600393719372
 11
148.3511290682932
 21
374.0600393719373
  0
LINE
  5
10E
100
AcDbEntity
  8
blocks
  6
ByLayer
 62
  256
370
   -1
100
AcDbLine
 10
327.2671490682932
 20
367.8600393719372
 11
327.2671490682932
 21
374.0600393719373
  0
LINE
  5
10F
100
AcDbEntity
  8
blocks
  6
ByLayer
 62
  256
370
   -1
100
AcDbLine
 10
148.3511290682932
 20
347.6062192023159
 11
327.2671490682932
 21
347.6062192023159
  0
LWPOLYLINE
  5
110
100
AcDbEntity
  8
blocks
  6
ByLayer
 62
  256
370
   -1
100
AcDbPolyline
 90
    2
 70
    0
 43
0
 10
635.0802633038961
 20
350.7745612758857
 10
635.0802633038961
 20
492.1436942758858
  0
LWPOLYLINE
  5
111
100
AcDbEntity
  8
blocks
  6
ByLayer
 62
  256
370
   -1
100
AcDbPolyline
 90
    2
 70
    0
 43
0
 10
443.1642433038962
 20
436.2452612758858
 10
443.1642433038962
 20
350.7745612758857
  0
SPLINE
  5
112
100
AcDbEntity
  8
blocks
  6
ByLayer
 62
  256
370
   -1
100
AcDbSpline
210
0
220
0
230
0
 70
    8
 71
    2
 72
   11
 73
    8
 74
    0
 42
1e-07
 43
1e-07
 40
0
 40
0
 40
0
 40
0.1666666666666667
 40
0.3333333333333333
 40
0.5
 40
0.6666666666666666
 40
0.8333333333333334
 40
1
 40
1
 40
1
 10
443.1642433038962
 20
436.2452612758858
 30
0
 10
442.9708044161744
 20
456.1625685292668
 30
0
 10
472.8950882618992
 20
505.3915593899404
 30
0
 10
531.0559063008698
 20
541.8241971403719
 30
0
 10
582.0507284692101
 20
550.8761883134662
 30
0
 10
621.633561745526
 20
534.845102586076
 30
0
 10
635.3917260150191
 20
504.5222985150564
 30
0
 10
635.0802633038961
 20
492.1436942758858
 30
0
  0
LINE
  5
113
100
AcDbEntity
  8
blocks
  6
ByLayer
 62
  256
370
   -1
100
AcDbLine
 10
635.0802633038961
 20
350.7745612758857
 11
681.8733171171996
 21
351.4870606754542
  0
LINE
  5
114
100
AcDbEntity
  8
blocks
  6
ByLayer
 62
  256
370
   -1
100
AcDbLine
 10
681.8733171171996
 20
351.4870606754542
 11
681.8733171171996
 21
591.4870606754541
  0
LINE
  5
115
100
AcDbEntity
  8
blocks
  6
ByLayer
 62
  256
370
   -1
100
AcDbLine
 10
681.8733171171996
 20
591.4870606754541
 11
391.8733171171995
 21
591.4870606754541
  0
LINE
  5
116
100
AcDbEntity
  8
blocks
  6
ByLayer
 62
  256
370
   -1
100
AcDbLine
 10
391.8733171171995
 20
591.4870606754541
 11
391.8733171171995
 21
351.4870606754542
  0
LINE
  5
117
100
AcDbEntity
  8
blocks
  6
ByLayer
 62
  256
370
   -1
100
AcDbLine
 10
391.8733171171995
 20
351.4870606754542
 11
443.1642433038962
 21
350.7745612758857
  0
SPLINE
  5
118
100
AcDbEntity
  8
blocks
  6
ByLayer
 62
  256
370
   -1
100
AcDbSpline
210
0
220
0
230
0
 70
    8
 71
    2
 72
   11
 73
    8
 74
    0
 42
1e-07
 43
1e-07
 40
0
 40
0
 40
0
 40
0.1666666666666667
 40
0.3333333333333333
 40
0.5
 40
0.6666666666666666
 40
0.8333333333333334
 40
1
 40
1
 40
1
 10
450.2241396512719
 20
434.6271055532724
 30
0
 10
450.058574966127
 20
453.1830446469397
 30
0
 10
478.4574051645922
 20
499.1754490460526
 30
0
 10
533.8503895597544
 20
533.8503100229894
 30
0
 10
581.760103559248
 20
542.4694717934128
 30
0
 10
617.5977861543136
 20
528.1069849719054
 30
0
 10
629.3925918470471
 20
501.415376755981
 30
0
 10
629.1425227672137
 20
490.6259100729852
 30
0
  0
LINE
  5
119
100
AcDbEntity
  8
blocks
  6
ByLayer
 62
  256
370
   -1
100
AcDbLine
 10
629.1404661854928
 20
375.5471000473914
 11
629.1404661854928
 21
490.4624128777701
  0
LINE
  5
11A
100
AcDbEntity
  8
blocks
  6
ByLayer
 62
  256
370
   -1
100
AcDbLine
 10
629.1404661854928
 20
369.3471000473914
 11
629.1404661854928
 21
349.09327987777
  0
LINE
  5
11B
100
AcDbEntity
  8
blocks
  6
ByLayer
 62
  256
370
   -1
100
AcDbLine
 10
450.2244461854928
 20
349.09327987777
 11
450.2244461854928
 21
369.3471000473914
  0
LINE
  5
11C
100
AcDbEntity
  8
blocks
  6
ByLayer
 62
  256
370
   -1
100
AcDbLine
 10
450.2244461854928
 20
434.5639798777701
 11
450.2244461854928
 21
427.7471000473914
  0
LINE
  5
11D
100
AcDbEntity
  8
blocks
  6
ByLayer
 62
  256
370
   -1
100
AcDbLine
 10
450.2244461854928
 20
415.5471000473914
 11
450.2244461854928
 21
375.5471000473914
  0
LINE
  5
11E
100
AcDbEntity
  8
blocks
  6
ByLayer
 62
  256
370
   -1
100
AcDbLine
 10
450.2244461854928
 20
415.5471000473914
 11
450.2244461854928
 21
427.7471000473914
  0
LINE
  5
11F
100
AcDbEntity
  8
blocks
  6
ByLayer
 62
  256
370
   -1
100
AcDbLine
 10
450.2244461854928
 20
369.3471000473914
 11
450.2244461854928
 21
375.5471000473914
  0
LINE
  5
120
100
AcDbEntity
  8
blocks
  6
ByLayer
 62
  256
370
   -1
100
AcDbLine
 10
629.1404661854928
 20
369.3471000473914
 11
629.1404661854928
 21
375.5471000473914
  0
LINE
  5
121
100
AcDbEntity
  8
blocks
  6
ByLayer
 62
  256
370
   -1
100
AcDbLine
 10
450.2244461854928
 20
349.09327987777
 11
629.1404661854928
 21
349.09327987777
  0
LWPOLYLINE
  5
122
100
AcDbEntity
  8
blocks
  6
ByLayer
 62
  256
370
   -1
100
AcDbPolyline
 90
    2
 70
    0
 43
0
 10
935.3062404843068
 20
351.9248523761938
 10
935.3062404843068
 20
493.2939853761939
  0
LWPOLYLINE
  5
123
100
AcDbEntity
  8
blocks
  6
ByLayer
 62
  256
370
   -1
100
AcDbPolyline
 90
    2
 70
    0
 43
0
 10
743.3902204843068
 20
437.3955523761938
 10
743.3902204843068
 20
351.9248523761938
  0
SPLINE
  5
124
100
AcDbEntity
  8
blocks
  6
ByLayer
 62
  256
370
   -1
100
AcDbSpline
210
0
220
0
230
0
 70
    8
 71
    2
 72
   11
 73
    8
 74
    0
 42
1e-07
 43
1e-07
 40
0
 40
0
 40
0
 40
0.1666666666666667
 40
0.3333333333333333
 40
0.5
 40
0.6666666666666666
 40
0.8333333333333334
 40
1
 40
1
 40
1
 10
743.3902204843068
 20
437.3955523761938
 30
0
 10
743.1967815965853
 20
457.312859629574
 30
0
 10
773.1210654423099
 20
506.5418504902485
 30
0
 10
831.2818834812805
 20
542.97448824068
 30
0
 10
882.2767056496208
 20
552.0264794137743
 30
0
 10
921.8595389259366
 20
535.995393686384
 30
0
 10
935.6177031954302
 20
505.6725896153645
 30
0
 10
935.3062404843068
 20
493.2939853761939
 30
0
  0
LINE
  5
125
100
AcDbEntity
  8
blocks
  6
ByLayer
 62
  256
370
   -1
100
AcDbLine
 10
935.3062404843068
 20
351.9248523761938
 11
982.0992942976103
 21
352.6373517757623
  0
LINE
  5
126
100
AcDbEntity
  8
blocks
  6
ByLayer
 62
  256
370
   -1
100
AcDbLine
 10
982.0992942976103
 20
352.6373517757623
 11
982.0992942976103
 21
592.6373517757622
  0
LINE
  5
127
100
AcDbEntity
  8
blocks
  6
ByLayer
 62
  256
370
   -1
100
AcDbLine
 10
982.0992942976103
 20
592.6373517757622
 11
692.0992942976102
 21
592.6373517757622
  0
LINE
  5
128
100
AcDbEntity
  8
blocks
  6
ByLayer
 62
  256
370
   -1
100
AcDbLine
 10
692.0992942976102
 20
592.6373517757622
 11
692.0992942976102
 21
352.6373517757623
  0
LINE
  5
129
100
AcDbEntity
  8
blocks
  6
ByLayer
 62
  256
370
   -1
100
AcDbLine
 10
692.0992942976102
 20
352.6373517757623
 11
743.3902204843068
 21
351.9248523761938
  0
SPLINE
  5
12A
100
AcDbEntity
  8
blocks
  6
ByLayer
 62
  256
370
   -1
100
AcDbSpline
210
0
220
0
230
0
 70
    8
 71
    2
 72
   11
 73
    8
 74
    0
 42
1e-07
 43
1e-07
 40
0
 40
0
 40
0
 40
0.1666666666666667
 40
0.3333333333333333
 40
0.5
 40
0.6666666666666666
 40
0.8333333333333334
 40
1
 40
1
 40
1
 10
750.4501168316826
 20
435.7773966535805
 30
0
 10
750.2845521465384
 20
454.333335747248
 30
0
 10
778.6833823450028
 20
500.3257401463606
 30
0
 10
834.0763667401652
 20
535.0006011232975
 30
0
 10
881.9860807396587
 20
543.6197628937209
 30
0
 10
917.8237633347243
 20
529.2572760722136
 30
0
 10
929.6185690274576
 20
502.5656678562892
 30
0
 10
929.3684999476244
 20
491.7762011732933
 30
0
  0
LINE
  5
12B
100
AcDbEntity
  8
blocks
  6
ByLayer
 62
  256
370
   -1
100
AcDbLine
 10
929.3664433659035
 20
376.6973911476995
 11
929.3664433659035
 21
491.6127039780782
  0
LINE
  5
12C
100
AcDbEntity
  8
blocks
  6
ByLayer
 62
  256
370
   -1
100
AcDbLine
 10
929.3664433659035
 20
370.4973911476995
 11
929.3664433659035
 21
350.2435709780781
  0
LINE
  5
12D
100
AcDbEntity
  8
blocks
  6
ByLayer
 62
  256
370
   -1
100
AcDbLine
 10
750.4504233659035
 20
350.2435709780781
 11
750.4504233659035
 21
370.4973911476995
  0
LINE
  5
12E
100
AcDbEntity
  8
blocks
  6
ByLayer
 62
  256
370
   -1
100
AcDbLine
 10
750.4504233659035
 20
435.7142709780782
 11
750.4504233659035
 21
428.8973911476995
  0
LINE
  5
12F
100
AcDbEntity
  8
blocks
  6
ByLayer
 62
  256
370
   -1
100
AcDbLine
 10
750.4504233659035
 20
416.6973911476995
 11
750.4504233659035
 21
376.6973911476995
  0
LINE
  5
130
100
AcDbEntity
  8
blocks
  6
ByLayer
 62
  256
370
   -1
100
AcDbLine
 10
750.4504233659035
 20
416.6973911476995
 11
750.4504233659035
 21
428.8973911476995
  0
LINE
  5
131
100
AcDbEntity
  8
blocks
  6
ByLayer
 62
  256
370
   -1
100
AcDbLine
 10
750.4504233659035
 20
370.4973911476995
 11
750.4504233659035
 21
376.6973911476995
  0
LINE
  5
132
100
AcDbEntity
  8
blocks
  6
ByLayer
 62
  256
370
   -1
100
AcDbLine
 10
929.3664433659035
 20
370.4973911476995
 11
929.3664433659035
 21
376.6973911476995
  0
LINE
  5
133
100
AcDbEntity
  8
blocks
  6
ByLayer
 62
  256
370
   -1
100
AcDbLine
 10
750.4504233659035
 20
350.2435709780781
 11
929.3664433659035
 21
350.2435709780781
  0
MTEXT
  5
134
100
AcDbEntity
  8
Notes
  6
ByLayer
 62
  256
370
   -1
100
AcDbMText
 10
375.8015297863135
 20
275.3124760339293
 30
0
 40
10
 41
281.6666820952868
 71
    1
 72
    1
  1
This hpocket needs to be slightly higher
  7
cyrillic_ii
210
0
220
0
230
1
 50
0
 73
    2
 44
1
  0
LEADER
  5
135
100
AcDbEntity
  8
Notes
  6
ByLayer
 62
  256
370
   -1
100
AcDbLeader
  3
Standard
 71
    1
 72
    0
 73
    3
 74
    0
 75
    0
 40
1
 41
10
 76
3
 76
3
 10
350.0446092406349
 20
135.5664093590898
 30
0
 10
311.60040360149
 20
-16.18703395332416
 30
0
 10
351.0562988627177
 20
-17.19872357540692
 30
0
  0
LEADER
  5
136
100
AcDbEntity
  8
Notes
  6
ByLayer
 62
  256
370
   -1
100
AcDbLeader
  3
Standard
 71
    1
 72
    0
 73
    3
 74
    0
 75
    0
 40
1
 41
10
 76
3
 76
3
 10
337.9043337756418
 20
180.0807527307313
 30
0
 10
322.7289894444004
 20
268.0977498519314
 30
0
 10
368.2550224381246
 20
268.0977498519314
 30
0
  0
MTEXT
  5
137
100
AcDbEntity
  8
Notes
  6
ByLayer
 62
  256
370
   -1
100
AcDbMText
 10
362.0999784865319
 20
-11.12954425441399
 30
0
 40
10
 41
257.2222376508424
 71
    1
 72
    1
  1
This hole needs to be slightly bigger
  7
cyrillic_ii
210
0
220
0
230
1
 50
0
 73
    2
 44
1
  0
MTEXT
  5
138
100
AcDbEntity
  8
Notes
  6
ByLayer
 62
  256
370
   -1
100
AcDbMText
 10
277.1225497466262
 20
313.1609082338556
 30
0
 40
10
 41
273.8889043175086
 71
    1
 72
    1
  1
This pocket needs to be slightly higher
  7
cyrillic_ii
210
0
220
0
230
1
 50
0
 73
    2
 44
1
  0
LEADER
  5
139
100
AcDbEntity
  8
Notes
  6
ByLayer
 62
  256
370
   -1
100
AcDbLeader
  3
Standard
 71
    1
 72
    0
 73
    3
 74
    0
 75
    0
 40
1
 41
10
 76
3
 76
3
 10
247.8030512656182
 20
199.4031862398687
 30
0
 10
232.6277069343767
 20
287.4201833610688
 30
0
 10
278.1537399281009
 20
287.4201833610688
 30
0
  0
ENDSEC
  0
SECTION
  2
OBJECTS
  0
DICTIONARY
  5
C
330
0
100
AcDbDictionary
281
    1
  3
ACAD_GROUP
350
D
  0
DICTIONARY
  5
D
330
C
100
AcDbDictionary
281
    1
  0
ENDSEC
  0
EOF
