2022/8/31 10:34:3, 329, system started, 0.00000, 0.00000, 0.00000, 0.00000
2022/8/31 10:34:5, 3019, no2, 22.43750, 35.35294, 291.82351, -1491.45031
2022/8/31 10:35:18, 76261, no2, 23.37500, 218.56863, 227.17646, -57.56805
2022/8/31 10:36:18, 136298, no2, 23.18750, 220.43136, 226.17646, -41.51330
2022/8/31 10:37:19, 196535, no2, 23.06250, 220.98039, 226.49018, -39.71429
2022/8/31 10:38:18, 256573, no2, 23.00000, 222.03921, 226.54902, -33.62504
2022/8/31 10:39:19, 316810, no2, 22.93750, 221.70588, 226.00000, -32.89959
2022/8/31 10:40:19, 376852, no2, 22.87500, 221.56863, 225.94117, -33.40975
2022/8/31 10:41:19, 436989, no2, 22.81250, 222.86274, 227.15686, -31.68040
2022/8/31 10:42:19, 497126, no2, 22.81250, 222.72549, 226.68627, -30.15330
2022/8/31 10:43:19, 557364, no2, 22.81250, 222.88235, 227.17646, -31.66050
2022/8/31 10:44:19, 617401, no2, 22.75000, 222.64706, 227.31372, -33.76881
2022/8/31 10:45:19, 677639, no2, 22.75000, 221.37254, 226.56863, -37.69229
2022/8/31 10:46:19, 737676, no2, 22.87500, 222.74510, 227.05882, -31.89649
2022/8/31 10:47:19, 797918, no2, 23.18750, 223.19607, 226.72549, -27.55635
2022/8/31 10:48:19, 857955, no2, 23.56250, 222.23529, 226.76470, -33.55723
2022/8/31 10:49:19, 918092, no2, 23.93750, 226.70588, 228.56863, -14.98821
2022/8/31 10:50:19, 978129, no2, 24.25000, 222.82353, 224.76470, -21.11675
2022/8/31 10:51:19, 1038366, no2, 24.56250, 223.21568, 226.25489, -25.51917
2022/8/31 10:52:20, 1098603, no2, 24.93750, 223.31372, 226.45097, -25.86026
2022/8/31 10:53:20, 1158745, no2, 25.31250, 223.54902, 226.84313, -26.12615
2022/8/31 10:54:20, 1218881, no2, 25.56250, 224.05882, 225.90196, -19.30308
2022/8/31 10:55:20, 1279017, no2, 25.93750, 221.11764, 225.82353, -36.83670
2022/8/31 10:56:20, 1339154, no2, 26.18750, 224.86274, 226.23529, -15.97624
2022/8/31 10:57:20, 1399191, no2, 26.43750, 221.80392, 226.86274, -36.75751
2022/8/31 10:58:20, 1459428, no2, 26.56250, 222.15686, 226.54902, -33.49724
2022/8/31 10:59:20, 1519464, no2, 26.68750, 221.21568, 225.05882, -33.81178
2022/8/31 11:0:20, 1579705, no2, 26.81250, 220.49018, 224.49018, -36.24058
2022/8/31 11:1:20, 1639742, no2, 26.87500, 224.23529, 227.31372, -23.75001
2022/8/31 11:2:20, 1699878, no2, 26.87500, 223.98039, 226.54902, -22.58110
2022/8/31 11:3:20, 1760015, no2, 26.93750, 222.62745, 226.17646, -29.42007
2022/8/31 11:4:20, 1820151, no2, 26.87500, 223.41175, 225.39215, -21.91334
2022/8/31 11:5:20, 1880288, no2, 26.81250, 223.01960, 225.94117, -26.18780
2022/8/31 11:6:20, 1940424, no2, 26.68750, 227.43136, 226.52941, -1.72530
2022/8/31 11:7:21, 2000663, no2, 26.56250, 221.58824, 225.76470, -34.05732
2022/8/31 11:8:21, 2060700, no2, 26.37500, 221.70588, 225.62745, -32.75648
2022/8/31 11:9:21, 2120936, no2, 26.25000, 223.90196, 225.74510, -19.92925
2022/8/31 11:10:21, 2180973, no2, 26.12500, 224.19607, 224.70588, -14.15069
2022/8/31 11:11:21, 2241210, no2, 26.06250, 225.98039, 224.43136, -2.31734
2022/8/31 11:12:21, 2301245, no2, 26.00000, 226.00000, 224.58824, -2.74531
2022/8/31 11:13:21, 2361379, no2, 26.00000, 224.25489, 225.72549, -17.61796
2022/8/31 11:14:21, 2421520, no2, 26.12500, 222.52941, 225.25489, -26.26262
2022/8/31 11:15:21, 2481757, no2, 26.12500, 223.82353, 226.13725, -21.83606
2022/8/31 11:16:21, 2541794, no2, 26.18750, 226.37254, 228.52941, -15.57111
2022/8/31 11:17:21, 2601930, no2, 26.31250, 225.09803, 226.86274, -16.94002
2022/8/31 11:18:21, 2662167, no2, 26.37500, 224.88235, 227.60784, -21.00738
2022/8/31 11:19:21, 2722204, no2, 26.43750, 229.78431, 227.70588, 8.12559
2022/8/31 11:20:21, 2782442, no2, 26.56250, 229.80392, 228.94117, 3.77139
2022/8/31 11:21:21, 2842475, no2, 26.68750, 227.50981, 227.80392, -5.84298
2022/8/31 11:22:22, 2902710, no2, 26.81250, 228.33332, 229.62745, -7.33820
2022/8/31 11:23:22, 2962745, no2, 26.93750, 229.43136, 229.07843, 1.31158
2022/8/31 11:24:22, 3022878, no2, 27.12500, 227.72549, 229.52941, -10.35997
2022/8/31 11:25:22, 3083115, no2, 27.18750, 227.50981, 229.50981, -11.53300
2022/8/31 11:26:22, 3143151, no2, 27.31250, 226.00000, 228.76470, -17.98498
2022/8/31 11:27:22, 3203307, no2, 27.43750, 227.86274, 229.50981, -9.18397
2022/8/31 11:28:22, 3263444, no2, 27.56250, 227.13725, 229.66667, -13.94932
2022/8/31 11:29:22, 3323584, no2, 27.62500, 226.90196, 228.56863, -11.72171
2022/8/31 11:30:22, 3383823, no2, 27.68750, 227.80392, 228.19607, -5.05466
2022/8/31 11:31:22, 3443861, no2, 27.81250, 228.21568, 229.56863, -6.90968
2022/8/31 11:32:22, 3503997, no2, 27.87500, 227.01960, 227.56863, -7.70020
2022/8/31 11:33:22, 3564135, no2, 28.06250, 224.58824, 227.84313, -23.13661
2022/8/31 11:34:22, 3624379, no2, 28.18750, 226.21568, 227.54902, -12.41101
2022/8/31 11:35:22, 3684419, no2, 28.31250, 224.66667, 227.74510, -22.29332
2022/8/31 11:36:23, 3744658, no2, 28.43750, 233.23529, 226.84313, 31.95163
2022/8/31 11:37:22, 3804696, no2, 28.56250, 225.37254, 227.88235, -18.38226
2022/8/31 11:38:23, 3864936, no2, 28.68750, 228.90196, 227.56863, 3.78728
2022/8/31 11:39:23, 3924972, no2, 28.75000, 223.58824, 225.82353, -23.17214
2022/8/31 11:40:23, 3985216, no2, 28.81250, 224.58824, 227.58824, -22.18601
2022/8/31 11:41:23, 4045255, no2, 28.81250, 220.31372, 226.98039, -46.17087
2022/8/31 11:42:23, 4105495, no2, 28.68750, 222.52941, 226.09803, -30.30390
2022/8/31 11:43:23, 4165534, no2, 28.68750, 220.43136, 225.33332, -40.72010
2022/8/31 11:44:23, 4225774, no2, 28.68750, 224.19607, 226.11764, -20.33684
2022/8/31 11:45:23, 4285813, no2, 28.81250, 224.11764, 225.86274, -20.12590
2022/8/31 11:46:23, 4346053, no2, 28.87500, 225.35293, 225.00000, -10.29661
2022/8/31 11:47:23, 4406197, no2, 28.93750, 222.33332, 227.05882, -34.24428
2022/8/31 11:48:23, 4466236, no2, 29.06250, 222.07843, 226.19607, -33.40728
2022/8/31 11:49:23, 4526476, no2, 29.18750, 221.27450, 225.47058, -36.32046
2022/8/31 11:50:23, 4586515, no2, 29.25000, 223.09803, 227.35293, -30.42570
2022/8/31 11:51:23, 4646654, no2, 29.31250, 225.00000, 227.01960, -18.09449
2022/8/31 11:52:24, 4706794, no2, 29.50000, 222.84313, 226.33332, -29.29007
2022/8/31 11:53:24, 4767033, no2, 29.56250, 227.45097, 226.19607, -1.24104
2022/8/31 11:54:24, 4827075, no2, 29.75000, 228.82353, 227.27450, 4.26772
2022/8/31 11:55:24, 4887311, no2, 29.93750, 238.76470, 227.05882, 64.59776
2022/8/31 11:56:24, 4947348, no2, 30.18750, 230.41175, 227.31372, 13.76766
2022/8/31 11:57:24, 5007485, no2, 30.43750, 230.80392, 228.43136, 13.60816
2022/8/31 11:58:24, 5067622, no2, 30.68750, 231.05882, 229.00000, 13.99837
2022/8/31 11:59:24, 5127859, no2, 30.93750, 230.72549, 229.41175, 11.26957
2022/8/31 12:0:24, 5187801, no2, 31.12500, 226.27450, 228.62745, -13.74193
2022/8/31 12:1:24, 5248039, no2, 31.31250, 227.90196, 229.17646, -4.96645
2022/8/31 12:2:24, 5308176, no2, 31.50000, 224.17646, 227.43136, -23.83845
2022/8/31 12:3:24, 5368415, no2, 31.68750, 226.37254, 226.74510, -9.30392
2022/8/31 12:4:24, 5428452, no2, 31.87500, 222.01960, 227.86274, -37.55602
2022/8/31 12:5:24, 5488591, no2, 32.00000, 226.17646, 227.74510, -12.31134
2022/8/31 12:6:25, 5548730, no2, 32.12500, 228.21568, 227.37254, 0.63899
2022/8/31 12:7:25, 5608869, no2, 32.31250, 224.96078, 227.68627, -19.45203
2022/8/31 12:8:25, 5669009, no2, 32.43750, 225.94117, 227.43136, -13.10361
2022/8/31 12:9:25, 5729147, no2, 32.56250, 224.90196, 226.35293, -17.57406
2022/8/31 12:10:25, 5789286, no2, 32.68750, 224.29411, 227.00000, -22.28776
2022/8/31 12:11:25, 5849325, no2, 32.75000, 227.23529, 226.47058, -3.76328
2022/8/31 12:12:25, 5909562, no2, 33.00000, 224.78431, 228.05882, -20.93159
2022/8/31 12:13:25, 5969700, no2, 33.18750, 230.43136, 227.86274, 13.37407
2022/8/31 12:14:25, 6029841, no2, 33.31250, 223.37254, 227.07843, -27.94078
2022/8/31 12:15:25, 6089980, no2, 33.43750, 224.84313, 226.76470, -18.66302
2022/8/31 12:16:25, 6150119, no2, 33.56250, 220.76470, 226.47058, -42.80768
2022/8/31 12:17:25, 6210257, no2, 33.56250, 224.45097, 226.68627, -20.92576
2022/8/31 12:18:25, 6270396, no2, 33.62500, 223.98039, 226.27450, -23.22007
2022/8/31 12:19:26, 6330534, no2, 33.68750, 223.76470, 226.58824, -24.93771
2022/8/31 12:20:26, 6390673, no2, 33.75000, 227.25489, 226.68627, -4.08022
2022/8/31 12:21:26, 6450926, no2, 33.87500, 231.47058, 227.37254, 20.41049
2022/8/31 12:22:26, 6510962, no2, 34.00000, 220.35293, 226.94117, -45.91985
2022/8/31 12:23:26, 6571201, no2, 34.18750, 224.33332, 227.62745, -22.77127
2022/8/31 12:24:26, 6631340, no2, 34.31250, 224.37254, 227.62745, -22.51184
2022/8/31 12:25:26, 6691519, no2, 34.43750, 224.07843, 227.56863, -24.19408
2022/8/31 12:26:26, 6751657, no2, 34.56250, 224.80392, 227.21568, -19.44463
2022/8/31 12:27:26, 6811800, no2, 34.62500, 223.64706, 227.50981, -26.69662
2022/8/31 12:28:26, 6871839, no2, 34.75000, 223.56863, 227.56863, -27.20663
2022/8/31 12:29:26, 6931986, no2, 34.81250, 222.49018, 227.52941, -33.64429
2022/8/31 12:30:26, 6992225, no2, 34.87500, 224.11764, 228.01960, -24.30720
2022/8/31 12:31:26, 7052263, no2, 34.93750, 227.05882, 228.29411, -6.85215
2022/8/31 12:32:27, 7112500, no2, 35.06250, 224.52941, 227.27450, -21.11508
2022/8/31 12:33:27, 7172538, no2, 35.25000, 228.07843, 228.45097, -0.72819
2022/8/31 12:34:27, 7232678, no2, 35.37500, 228.29411, 228.00000, 0.97948
2022/8/31 12:35:27, 7292713, no2, 35.50000, 222.47058, 227.90196, -33.93283
2022/8/31 12:36:27, 7353052, no2, 35.56250, 225.80392, 228.41175, -14.24231
2022/8/31 12:37:27, 7413090, no2, 35.56250, 222.60784, 227.47058, -32.77413
2022/8/31 12:38:27, 7473228, no2, 35.50000, 224.70588, 228.74510, -21.12321
2022/8/31 12:39:27, 7533266, no2, 35.43750, 217.21568, 227.47058, -65.22113
2022/8/31 12:40:27, 7593504, no2, 35.25000, 215.43136, 224.82353, -73.78985
2022/8/31 12:41:27, 7653648, no2, 35.06250, 217.09803, 224.54902, -63.40103
2022/8/31 12:42:27, 7713785, no2, 35.00000, 220.54902, 225.50981, -43.46695
2022/8/31 12:43:27, 7773924, no2, 34.87500, 222.13725, 226.19607, -34.50399
2022/8/31 12:44:27, 7834062, no2, 34.81250, 219.86274, 225.03921, -47.05924
2022/8/31 12:45:28, 7894201, no2, 34.75000, 218.29411, 224.70588, -56.13063
2022/8/31 12:46:28, 7954339, no2, 34.68750, 222.94117, 225.21568, -28.64718
2022/8/31 12:47:28, 8014482, no2, 34.68750, 223.56863, 224.82353, -24.48294
2022/8/31 12:48:28, 8074620, no2, 34.62500, 221.60784, 225.76470, -37.18968
2022/8/31 12:49:28, 8134759, no2, 34.56250, 220.13725, 224.96078, -45.17985
2022/8/31 12:50:28, 8194897, no2, 34.56250, 221.58824, 225.47058, -36.98035
2022/8/31 12:51:28, 8255036, no2, 34.50000, 226.21568, 224.86274, -8.48174
2022/8/31 12:52:28, 8315171, no2, 34.43750, 221.96078, 224.84313, -34.01017
2022/8/31 12:53:28, 8375310, no2, 34.43750, 222.62745, 225.64706, -30.86193
2022/8/31 12:54:28, 8435453, no2, 34.43750, 220.13725, 225.68627, -45.88040
2022/8/31 12:55:28, 8495592, no2, 34.37500, 222.35293, 225.41175, -32.23101
2022/8/31 12:56:28, 8555730, no2, 34.37500, 224.60784, 226.54902, -19.90932
2022/8/31 12:57:28, 8615869, no2, 34.25000, 227.56863, 229.70588, -5.64560
2022/8/31 12:58:28, 8676005, no2, 34.18750, 223.03921, 226.33332, -29.07061
2022/8/31 12:59:29, 8736144, no2, 34.12500, 225.86274, 225.86274, -11.52859
2022/8/31 13:0:29, 8796282, no2, 34.12500, 226.90196, 226.52941, -6.05542
2022/8/31 13:1:29, 8856423, no2, 34.12500, 225.07843, 226.52941, -17.02242
2022/8/31 13:2:29, 8916561, no2, 34.18750, 226.00000, 226.03921, -10.92681
2022/8/31 13:3:29, 8976700, no2, 34.25000, 230.60784, 227.43136, 15.19757
2022/8/31 13:4:29, 9036835, no2, 34.31250, 224.52941, 227.72549, -21.67707
2022/8/31 13:5:29, 9096974, no2, 34.43750, 225.94117, 227.84313, -13.28530
2022/8/31 13:6:29, 9157213, no2, 34.62500, 230.29411, 228.23529, 12.54346
2022/8/31 13:7:29, 9217353, no2, 34.75000, 225.60784, 227.54902, -14.92332
2022/8/31 13:8:29, 9277492, no2, 35.00000, 225.49018, 228.01960, -16.01420
2022/8/31 13:9:29, 9337530, no2, 35.18750, 224.17646, 228.88235, -24.58728
2022/8/31 13:10:29, 9397668, no2, 35.31250, 226.41175, 229.15686, -11.29499
2022/8/31 13:11:29, 9457806, no2, 35.43750, 225.15686, 229.01960, -18.65531
2022/8/31 13:12:30, 9518045, no2, 35.50000, 224.25489, 228.94117, -23.98293
2022/8/31 13:13:30, 9578083, no2, 35.56250, 223.74510, 228.17646, -26.45192
2022/8/31 13:14:30, 9638337, no2, 35.62500, 223.82353, 227.68627, -25.60804
2022/8/31 13:15:30, 9698476, no2, 35.62500, 220.90196, 227.88235, -43.31883
2022/8/31 13:16:30, 9758613, no2, 35.68750, 224.76470, 227.45097, -19.77113
2022/8/31 13:17:30, 9818652, no2, 35.81250, 223.00000, 228.27450, -30.90912
2022/8/31 13:18:30, 9878890, no2, 35.93750, 225.74510, 226.70588, -13.37889
2022/8/31 13:19:30, 9939028, no2, 36.06250, 222.78431, 227.23529, -31.50499
2022/8/31 13:20:30, 9999166, no2, 36.18750, 228.11764, 227.96078, 0.18388
2022/8/31 13:21:30, 10059205, no2, 36.31250, 224.62745, 227.68627, -20.63123
2022/8/31 13:22:30, 10119444, no2, 36.43750, 227.50981, 227.92156, -3.38107
2022/8/31 13:23:30, 10179480, no2, 36.50000, 220.72549, 227.50981, -43.97993
2022/8/31 13:24:31, 10239718, no2, 36.50000, 222.15686, 227.19607, -35.22997
2022/8/31 13:25:31, 10299756, no2, 36.56250, 221.68627, 226.70588, -37.84453
2022/8/31 13:26:31, 10359994, no2, 36.68750, 224.58824, 226.94117, -20.49562
2022/8/31 13:27:31, 10420036, no2, 36.87500, 223.56863, 228.11764, -27.02900
2022/8/31 13:28:31, 10480074, no2, 37.00000, 222.96078, 227.45097, -30.44221
2022/8/31 13:29:31, 10540312, no2, 37.12500, 226.43136, 228.31372, -9.77967
2022/8/31 13:30:31, 10600549, no2, 37.31250, 224.25489, 228.70588, -22.87628
2022/8/31 13:31:31, 10660586, no2, 37.43750, 226.72549, 228.15686, -7.86075
2022/8/31 13:32:31, 10720722, no2, 37.43750, 229.68627, 227.90196, 9.98897
2022/8/31 13:33:31, 10780857, no2, 37.56250, 230.45097, 227.60784, 14.66056
2022/8/31 13:34:31, 10840997, no2, 37.68750, 222.09803, 227.52941, -35.54504
2022/8/31 13:35:31, 10901135, no2, 37.75000, 225.72549, 226.52941, -13.64384
2022/8/31 13:36:31, 10961373, no2, 37.75000, 217.86274, 223.72549, -60.72080
2022/8/31 13:37:31, 11021411, no2, 37.62500, 221.72549, 227.49018, -37.79110
2022/8/31 13:38:32, 11081649, no2, 37.56250, 219.45097, 227.21568, -51.44351
2022/8/31 13:39:32, 11141687, no2, 37.50000, 223.41175, 228.05882, -27.75358
2022/8/31 13:40:32, 11201925, no2, 37.43750, 219.78431, 226.00000, -49.24121
2022/8/31 13:41:32, 11261967, no2, 37.37500, 213.47058, 223.01960, -86.63404
2022/8/31 13:42:32, 11322206, no2, 37.25000, 218.92156, 224.43136, -54.01974
2022/8/31 13:43:32, 11382243, no2, 37.18750, 219.07843, 223.21568, -52.73106
2022/8/31 13:44:32, 11442482, no2, 37.06250, 221.41175, 223.84313, -38.73272
2022/8/31 13:45:32, 11502519, no2, 37.00000, 217.00000, 223.15686, -65.00001
2022/8/31 13:46:32, 11562758, no2, 36.93750, 222.09803, 224.07843, -34.56184
2022/8/31 13:47:32, 11622800, no2, 36.87500, 214.70588, 218.70588, -77.14694
2022/8/31 13:48:32, 11682937, no2, 36.81250, 221.80392, 223.52941, -36.02482
2022/8/31 13:49:32, 11743076, no2, 36.75000, 221.90196, 225.01960, -35.93012
2022/8/31 13:50:32, 11803213, no2, 36.68750, 221.54902, 225.31372, -38.13159
2022/8/31 13:51:33, 11863352, no2, 36.62500, 221.39215, 224.92156, -38.88123
2022/8/31 13:52:33, 11923590, no2, 36.62500, 222.54902, 226.13725, -32.42625
2022/8/31 13:53:33, 11983629, no2, 36.56250, 223.86274, 225.37254, -24.17857
2022/8/31 13:54:33, 12043770, no2, 36.50000, 225.05882, 227.45097, -17.89210
2022/8/31 13:55:33, 12103909, no2, 36.37500, 226.03921, 226.56863, -11.58167
2022/8/31 13:56:33, 12164148, no2, 36.25000, 223.45097, 225.52941, -26.58466
2022/8/31 13:57:33, 12224186, no2, 36.25000, 223.54902, 225.64706, -26.05686
2022/8/31 13:58:33, 12284323, no2, 36.18750, 221.82353, 225.15686, -36.14164
2022/8/31 13:59:33, 12344462, no2, 36.06250, 227.23529, 225.29411, -3.60519
2022/8/31 14:0:33, 12404702, no2, 36.06250, 223.37254, 224.84313, -26.57359
2022/8/31 14:1:33, 12464740, no2, 36.06250, 224.56863, 224.64706, -19.26589
2022/8/31 14:2:33, 12524978, no2, 36.12500, 227.47058, 226.01960, -2.63123
2022/8/31 14:3:33, 12585014, no2, 36.12500, 225.05882, 225.58824, -16.89270
2022/8/31 14:4:34, 12645152, no2, 36.12500, 226.39215, 226.43136, -9.34924
2022/8/31 14:5:34, 12705388, no2, 36.18750, 225.62745, 227.21568, -14.38639
2022/8/31 14:6:34, 12765426, no2, 36.25000, 226.52941, 227.27450, -8.98875
2022/8/31 14:7:34, 12825579, no2, 36.37500, 226.72549, 227.76470, -8.03874
2022/8/31 14:8:34, 12885714, no2, 36.56250, 227.68627, 226.72549, -1.76810
2022/8/31 14:9:34, 12945851, no2, 36.75000, 226.23529, 227.80392, -10.91541
2022/8/31 14:10:34, 13005988, no2, 37.00000, 226.88235, 229.62745, -7.51178
2022/8/31 14:11:34, 13066024, no2, 37.31250, 228.27450, 228.05882, 1.43202
2022/8/31 14:12:34, 13126259, no2, 37.56250, 227.37254, 228.17646, -3.92839
2022/8/31 14:13:34, 13186295, no2, 37.81250, 228.43136, 229.47058, 2.45500
2022/8/31 14:14:34, 13246659, no2, 38.06250, 221.13725, 228.86274, -41.23859
2022/8/31 14:15:34, 13306797, no2, 38.31250, 225.68627, 228.76470, -13.74923
2022/8/31 14:16:35, 13366935, no2, 38.50000, 230.74510, 228.72549, 16.76889
2022/8/31 14:17:35, 13426970, no2, 38.62500, 225.27450, 228.45097, -16.11884
2022/8/31 14:18:35, 13487208, no2, 38.75000, 222.60784, 228.58824, -32.07101
2022/8/31 14:19:35, 13547246, no2, 38.87500, 231.09803, 228.35293, 18.98805
2022/8/31 14:20:35, 13607486, no2, 39.06250, 230.66667, 228.21568, 16.42618
2022/8/31 14:21:35, 13667521, no2, 39.18750, 225.78431, 226.17646, -13.61953
2022/8/31 14:22:35, 13727759, no2, 39.31250, 222.62745, 227.92156, -31.94756
2022/8/31 14:23:35, 13787796, no2, 39.50000, 222.66667, 227.60784, -31.80127
2022/8/31 14:24:35, 13848034, no2, 39.62500, 221.94117, 227.09803, -36.39077
2022/8/31 14:25:35, 13908180, no2, 39.75000, 224.11764, 227.27450, -23.20461
2022/8/31 14:26:35, 13968318, no2, 39.75000, 221.31372, 227.00000, -40.21229
2022/8/31 14:27:35, 14028360, no2, 39.81250, 216.50981, 225.23529, -70.06555
2022/8/31 14:28:36, 14088598, no2, 39.87500, 218.09803, 226.29411, -59.94990
2022/8/31 14:29:35, 14148635, no2, 40.00000, 224.74510, 228.82353, -18.47875
2022/8/31 14:30:36, 14208873, no2, 40.06250, 221.92156, 226.07843, -37.24594
2022/8/31 14:31:36, 14269010, no2, 40.06250, 219.66667, 224.31372, -52.12726
2022/8/31 14:32:36, 14329148, no2, 40.18750, 223.03921, 227.58824, -29.22243
2022/8/31 14:33:36, 14389189, no2, 40.31250, 219.50981, 225.74510, -52.73580
2022/8/31 14:34:36, 14449427, no2, 40.37500, 226.86274, 229.31372, -3.41303
2022/8/31 14:35:36, 14509462, no2, 40.31250, 219.66667, 225.66667, -51.89708
2022/8/31 14:36:36, 14569700, no2, 40.31250, 215.60784, 226.15686, -75.65335
2022/8/31 14:37:36, 14629738, no2, 40.25000, 219.50981, 226.56863, -51.57365
2022/8/31 14:38:36, 14689975, no2, 40.06250, 220.52941, 225.50981, -46.04388
2022/8/31 14:39:36, 14750013, no2, 39.93750, 220.47058, 226.90196, -45.34018
2022/8/31 14:40:36, 14810255, no2, 39.81250, 217.33332, 223.94117, -65.81814
2022/8/31 14:41:36, 14870292, no2, 39.81250, 215.54902, 219.96078, -78.71864
2022/8/31 14:42:37, 14930429, no2, 39.81250, 220.21568, 224.07843, -48.40841
2022/8/31 14:43:37, 14990567, no2, 39.81250, 219.17646, 223.56863, -54.93626
2022/8/31 14:44:37, 15050704, no2, 39.81250, 216.90196, 222.90196, -68.97885
2022/8/31 14:45:37, 15110842, no2, 39.62500, 220.19607, 226.25489, -47.29808
2022/8/31 14:46:37, 15171084, no2, 39.50000, 221.47058, 225.92156, -39.75535
2022/8/31 14:47:37, 15231122, no2, 39.43750, 215.84313, 224.35293, -74.25744
2022/8/31 14:48:37, 15291259, no2, 39.37500, 222.01960, 224.17646, -37.13444
2022/8/31 14:49:37, 15351397, no2, 39.18750, 221.64706, 223.27450, -39.53785
2022/8/31 14:50:37, 15411534, no2, 39.12500, 219.21568, 223.64706, -53.96449
2022/8/31 14:51:37, 15471673, no2, 38.93750, 214.68627, 223.90196, -80.94411
2022/8/31 14:52:37, 15531810, no2, 38.87500, 221.11764, 223.88235, -42.21183
2022/8/31 14:53:37, 15591952, no2, 38.75000, 222.70588, 224.25489, -32.45870
2022/8/31 14:54:38, 15652190, no2, 38.75000, 217.37254, 220.80392, -65.31254
2022/8/31 14:55:38, 15712228, no2, 38.81250, 223.74510, 223.80392, -26.37048
2022/8/31 14:56:38, 15772365, no2, 38.75000, 222.47058, 224.86274, -33.73678
2022/8/31 14:57:38, 15832402, no2, 38.62500, 216.21568, 225.07843, -71.23381
2022/8/31 14:58:38, 15892640, no2, 38.50000, 217.49018, 223.68627, -63.70582
2022/8/31 14:59:38, 15952878, no2, 38.43750, 219.09803, 225.13725, -53.78281
2022/8/31 15:0:38, 16013032, no2, 38.43750, 222.47058, 224.31372, -33.60817
2022/8/31 15:1:38, 16073169, no2, 38.50000, 214.66667, 222.45097, -80.87262
2022/8/31 15:2:38, 16133308, no2, 38.56250, 218.82353, 223.19607, -55.83209
2022/8/31 15:3:38, 16193345, no2, 38.56250, 224.84313, 223.88235, -19.51318
2022/8/31 15:4:38, 16253583, no2, 38.62500, 221.58824, 224.33332, -39.06246
2022/8/31 15:5:38, 16313621, no2, 38.68750, 216.23529, 224.19607, -71.33442
2022/8/31 15:6:39, 16373856, no2, 38.68750, 220.58824, 224.70588, -45.04971
2022/8/31 15:7:39, 16433904, no2, 38.68750, 222.29411, 225.88235, -34.54713
2022/8/31 15:8:38, 16493942, no2, 38.75000, 222.82353, 222.60784, -32.12263
2022/8/31 15:9:39, 16554180, no2, 38.75000, 223.15686, 224.96078, -29.58728
2022/8/31 15:10:39, 16614419, no2, 38.81250, 227.21568, 224.92156, -5.22481
2022/8/31 15:11:39, 16674455, no2, 38.93750, 224.00000, 225.41175, -24.50435
2022/8/31 15:12:39, 16734693, no2, 39.06250, 220.21568, 225.90196, -47.16688
2022/8/31 15:13:39, 16794737, no2, 39.06250, 220.62745, 226.45097, -44.51501
2022/8/31 15:14:39, 16854976, no2, 39.06250, 221.05882, 226.56863, -41.88311
2022/8/31 15:15:39, 16915115, no2, 39.06250, 220.49018, 225.70588, -45.57861
2022/8/31 15:16:39, 16975252, no2, 38.93750, 216.70588, 224.88235, -68.52150
2022/8/31 15:17:39, 17035290, no2, 38.81250, 216.86274, 224.94117, -67.48415
2022/8/31 15:18:39, 17095528, no2, 38.68750, 218.00000, 223.03921, -60.96035
2022/8/31 15:19:39, 17155571, no2, 38.56250, 220.96078, 223.94117, -42.85230
2022/8/31 15:20:40, 17215811, no2, 38.43750, 217.35293, 223.68627, -64.46901
2022/8/31 15:21:40, 17275950, no2, 38.25000, 215.58824, 221.90196, -75.02945
2022/8/31 15:22:40, 17336087, no2, 38.12500, 214.76470, 218.49018, -79.91892
2022/8/31 15:23:40, 17396126, no2, 38.00000, 220.78431, 223.82353, -43.39621
2022/8/31 15:24:40, 17456364, no2, 37.93750, 225.01960, 223.52941, -17.85930
2022/8/31 15:25:40, 17516402, no2, 37.93750, 221.47058, 222.11764, -39.17715
2022/8/31 15:26:40, 17576547, no2, 38.00000, 218.86274, 223.62745, -54.95282
2022/8/31 15:27:40, 17636786, no2, 38.00000, 220.29411, 223.01960, -46.34437
2022/8/31 15:28:40, 17696824, no2, 38.06250, 222.96078, 224.84313, -30.34714
2022/8/31 15:29:40, 17756961, no2, 38.12500, 220.96078, 227.09803, -42.33122
2022/8/31 15:30:40, 17817000, no2, 38.00000, 223.70588, 223.52941, -25.82545
2022/8/31 15:31:40, 17877238, no2, 37.93750, 218.05882, 224.78431, -59.74610
2022/8/31 15:32:40, 17937276, no2, 37.81250, 218.35293, 222.74510, -57.77900
2022/8/31 15:33:41, 17997521, no2, 37.75000, 218.03921, 223.92156, -59.67424
2022/8/31 15:34:41, 18057660, no2, 37.62500, 219.35293, 222.76470, -51.52716
2022/8/31 15:35:41, 18117698, no2, 37.56250, 218.49018, 223.74510, -56.76523
2022/8/31 15:36:41, 18177937, no2, 37.50000, 226.86274, 221.64706, -6.03478
2022/8/31 15:37:41, 18238072, no2, 37.43750, 224.27450, 223.35293, -21.78879
2022/8/31 15:38:41, 18298211, no2, 37.31250, 224.66667, 223.66667, -19.35802
2022/8/31 15:39:41, 18358456, no2, 37.31250, 222.82353, 224.11764, -30.53617
2022/8/31 15:40:41, 18418494, no2, 37.25000, 218.80392, 223.35293, -54.48406
2022/8/31 15:41:41, 18478632, no2, 37.18750, 219.78431, 224.09803, -48.70134
2022/8/31 15:42:41, 18538771, no2, 37.12500, 228.68627, 223.56863, 5.03025
2022/8/31 15:43:41, 18598906, no2, 37.06250, 224.15686, 223.90196, -22.23985
2022/8/31 15:44:41, 18659045, no2, 37.00000, 219.47058, 222.37254, -49.90570
2022/8/31 15:45:42, 18719324, no2, 36.93750, 218.86274, 223.41175, -53.80637
2022/8/31 15:46:42, 18779368, no2, 36.93750, 223.25489, 222.58824, -27.12820
2022/8/31 15:47:42, 18839607, no2, 36.87500, 227.60784, 224.94117, -1.66196
2022/8/31 15:48:42, 18899643, no2, 36.81250, 226.35293, 222.45097, -8.28128
2022/8/31 15:49:42, 18959779, no2, 36.81250, 224.64706, 224.19607, -19.16381
2022/8/31 15:50:42, 19019817, no2, 36.75000, 225.05882, 224.96078, -16.92218
2022/8/31 15:51:42, 19080056, no2, 36.75000, 221.74510, 224.29411, -36.60080
2022/8/31 15:52:42, 19140210, no2, 36.56250, 222.45097, 224.41175, -32.25387
2022/8/31 15:53:42, 19200451, no2, 36.43750, 219.62745, 222.60784, -48.29006
2022/8/31 15:54:42, 19260490, no2, 36.31250, 224.29411, 225.15686, -21.35247
2022/8/31 15:55:42, 19320729, no2, 36.18750, 219.31372, 223.43136, -50.29558
2022/8/31 15:56:42, 19380767, no2, 36.00000, 217.98039, 220.88235, -56.58019
2022/8/31 15:57:43, 19441006, no2, 35.87500, 223.52941, 224.33332, -25.18274
2022/8/31 15:58:43, 19501145, no2, 35.75000, 219.62745, 223.03921, -47.67390
2022/8/31 15:59:43, 19561190, no2, 35.62500, 214.27450, 220.27450, -77.74398
2022/8/31 16:0:43, 19621328, no2, 35.62500, 222.43136, 222.49018, -30.26979
2022/8/31 16:1:43, 19681467, no2, 35.68750, 223.84313, 224.58824, -23.32288
2022/8/31 16:2:43, 19741605, no2, 35.68750, 221.98039, 222.90196, -33.35311
2022/8/31 16:3:43, 19801744, no2, 35.68750, 223.66667, 223.80392, -23.83878
2022/8/31 16:4:43, 19861882, no2, 35.68750, 229.82353, 224.74510, 12.53502
2022/8/31 16:5:43, 19922019, no2, 35.68750, 225.70588, 224.11764, -11.79279
2022/8/31 16:6:43, 19982264, no2, 35.75000, 227.25489, 225.50981, -3.47291
2022/8/31 16:7:43, 20042300, no2, 35.81250, 224.19607, 224.54902, -21.26513
2022/8/31 16:8:43, 20102539, no2, 35.87500, 224.68627, 225.07843, -18.70133
2022/8/31 16:9:43, 20162577, no2, 35.81250, 223.90196, 225.23529, -23.48540
2022/8/31 16:10:43, 20222715, no2, 35.75000, 222.72549, 224.41175, -29.97049
2022/8/31 16:11:44, 20282855, no2, 35.75000, 222.37254, 224.45097, -32.11972
2022/8/31 16:12:44, 20343100, no2, 35.75000, 227.25489, 225.21568, -3.27390
2022/8/31 16:13:44, 20403136, no2, 35.75000, 227.00000, 224.70588, -4.46197
2022/8/31 16:14:44, 20463173, no2, 35.75000, 241.23529, 223.88235, 81.70841
2022/8/31 16:15:44, 20523409, no2, 35.81250, 229.45097, 225.33332, 9.82271
2022/8/31 16:16:44, 20583645, no2, 35.87500, 224.19607, 224.66667, -21.38637
2022/8/31 16:17:44, 20643683, no2, 35.87500, 224.23529, 224.62745, -21.12547
2022/8/31 16:18:44, 20703922, no2, 35.81250, 226.11764, 224.17646, -9.46345
2022/8/31 16:19:44, 20763965, no2, 35.75000, 225.09803, 225.03921, -16.12619
2022/8/31 16:20:44, 20824103, no2, 35.68750, 225.98039, 224.54902, -10.44185
2022/8/31 16:21:44, 20884251, no2, 35.56250, 224.76470, 225.86274, -18.62395
2022/8/31 16:22:45, 20944489, no2, 35.37500, 222.98039, 223.07843, -27.09316
2022/8/31 16:23:44, 21004528, no2, 35.18750, 223.84313, 223.17646, -21.76627
2022/8/31 16:24:45, 21064767, no2, 35.00000, 223.86274, 223.45097, -21.68041
2022/8/31 16:25:45, 21124810, no2, 34.81250, 219.72549, 222.15686, -45.12195
2022/8/31 16:26:45, 21184951, no2, 34.68750, 222.49018, 221.88235, -28.03919
2022/8/31 16:27:45, 21245089, no2, 34.50000, 221.11764, 222.35293, -36.50060
2022/8/31 16:28:45, 21305328, no2, 34.31250, 222.19607, 222.56863, -29.99192
2022/8/31 16:29:45, 21365467, no2, 34.12500, 231.74510, 222.39215, 27.89287
2022/8/31 16:30:45, 21425603, no2, 34.06250, 223.72549, 222.21568, -20.04272
2022/8/31 16:31:45, 21485642, no2, 33.93750, 225.56863, 223.09803, -9.85587
2022/8/31 16:32:45, 21545786, no2, 33.87500, 222.80392, 222.41175, -25.55864
2022/8/31 16:33:45, 21605924, no2, 33.75000, 230.80392, 224.68627, 19.82018
2022/8/31 16:34:45, 21666061, no2, 33.75000, 225.19607, 224.17646, -13.25473
2022/8/31 16:35:46, 21726300, no2, 33.75000, 222.47058, 223.82353, -29.19522
2022/8/31 16:36:45, 21786238, no2, 33.56250, 226.60784, 223.23529, -3.34902
2022/8/31 16:37:46, 21846475, no2, 33.50000, 224.13725, 224.13725, -19.35732
2022/8/31 16:38:46, 21906714, no2, 33.50000, 226.96078, 224.74510, -3.19870
2022/8/31 16:39:46, 21966757, no2, 33.56250, 226.52941, 226.84313, -8.63498
2022/8/31 16:40:46, 22026894, no2, 33.56250, 225.88235, 225.96078, -11.34912
2022/8/31 16:41:46, 22087033, no2, 33.62500, 228.39215, 225.39215, 4.47373
2022/8/31 16:42:46, 22147269, no2, 33.68750, 223.70588, 223.90196, -21.80791
2022/8/31 16:43:46, 22207308, no2, 33.75000, 229.88235, 225.80392, 12.84936
2022/8/31 16:44:46, 22267545, no2, 33.81250, 229.52941, 225.80392, 10.70427
2022/8/31 16:45:46, 22327700, no2, 33.93750, 228.03921, 224.43136, 3.37375
2022/8/31 16:46:46, 22387736, no2, 34.06250, 230.07843, 226.13725, 13.52152
2022/8/31 16:47:46, 22447973, no2, 34.25000, 228.27450, 226.07843, 2.69013
2022/8/31 16:48:46, 22508008, no2, 34.37500, 226.13725, 226.76470, -10.94636
2022/8/31 16:49:47, 22568247, no2, 34.50000, 227.52941, 226.68627, -2.49996
2022/8/31 16:50:47, 22628284, no2, 34.56250, 224.39215, 226.17646, -20.84688
2022/8/31 16:51:47, 22688422, no2, 34.62500, 228.07843, 227.47058, -0.00590
2022/8/31 16:52:47, 22748566, no2, 34.75000, 225.92156, 225.78431, -11.31191
2022/8/31 16:53:47, 22808805, no2, 34.81250, 224.37254, 225.86274, -20.72601
2022/8/31 16:54:47, 22868843, no2, 35.06250, 231.96078, 224.82353, 25.74330
2022/8/31 16:55:47, 22928979, no2, 35.25000, 225.58824, 225.09803, -12.93186
2022/8/31 16:56:47, 22989118, no2, 35.37500, 226.11764, 222.68627, -7.91570
2022/8/31 16:57:47, 23049254, no2, 35.43750, 225.17646, 226.15686, -16.33146
2022/8/31 16:58:47, 23109397, no2, 35.56250, 228.23529, 226.92156, 1.47256
2022/8/31 16:59:47, 23169635, no2, 35.68750, 227.66667, 227.78431, -2.55009
2022/8/31 17:0:47, 23229671, no2, 35.75000, 228.74510, 226.27450, 4.97202
2022/8/31 17:1:47, 23289907, no2, 35.87500, 226.27450, 227.27450, -10.55279
2022/8/31 17:2:47, 23349945, no2, 35.93750, 230.70588, 227.58824, 15.90878
2022/8/31 17:3:48, 23410081, no2, 36.06250, 233.60784, 227.09803, 33.66933
2022/8/31 17:4:48, 23470317, no2, 36.12500, 220.58824, 225.62745, -43.80156
2022/8/31 17:5:48, 23530362, no2, 36.25000, 228.60784, 226.11764, 4.12002
2022/8/31 17:6:48, 23590397, no2, 36.18750, 224.52941, 226.25489, -20.46650
2022/8/31 17:7:48, 23650636, no2, 36.12500, 227.56863, 227.23529, -2.72696
2022/8/31 17:8:48, 23710872, no2, 36.12500, 226.33332, 225.54902, -9.20552
2022/8/31 17:9:48, 23770908, no2, 36.06250, 224.98039, 224.90196, -16.93802
2022/8/31 17:10:48, 23831147, no2, 36.00000, 218.41175, 223.60784, -55.62504
2022/8/31 17:11:48, 23891286, no2, 35.87500, 223.13725, 223.96078, -27.30323
2022/8/31 17:12:48, 23951331, no2, 35.68750, 227.23529, 225.58824, -3.61736
2022/8/31 17:13:48, 24011467, no2, 35.56250, 221.27450, 224.96078, -38.95344
2022/8/31 17:14:48, 24071706, no2, 35.43750, 222.31372, 224.78431, -32.49082
2022/8/31 17:15:48, 24131744, no2, 35.37500, 227.33332, 224.90196, -2.35336
2022/8/31 17:16:49, 24191981, no2, 35.25000, 221.82353, 223.84313, -34.53566
2022/8/31 17:17:49, 24252019, no2, 35.12500, 218.58824, 223.03921, -53.17950
2022/8/31 17:18:49, 24312262, no2, 35.00000, 224.72549, 222.47058, -15.60728
2022/8/31 17:19:49, 24372303, no2, 34.81250, 222.80392, 223.17646, -27.58511
2022/8/31 17:20:49, 24432442, no2, 34.75000, 224.15686, 224.39215, -20.56457
2022/8/31 17:21:49, 24492580, no2, 34.75000, 222.88235, 221.70588, -25.60436
2022/8/31 17:22:49, 24552719, no2, 34.75000, 233.88235, 222.29411, 39.97643
2022/8/31 17:23:49, 24612855, no2, 34.81250, 221.56863, 223.25489, -35.08951
2022/8/31 17:24:49, 24672894, no2, 34.87500, 225.05882, 224.07843, -14.94325
2022/8/31 17:25:49, 24733240, no2, 34.87500, 224.21568, 223.84313, -19.79292
2022/8/31 17:26:49, 24793278, no2, 34.93750, 224.45097, 225.62745, -20.08038
2022/8/31 17:27:49, 24853517, no2, 35.06250, 227.21568, 225.76470, -3.62583
2022/8/31 17:28:49, 24913553, no2, 35.18750, 236.60784, 224.35293, 54.00764
2022/8/31 17:29:50, 24973790, no2, 35.25000, 229.27450, 224.70588, 9.56218
2022/8/31 17:30:49, 25033725, no2, 35.25000, 227.25489, 223.74510, -1.78953
2022/8/31 17:31:50, 25094062, no2, 35.37500, 230.39215, 226.98039, 14.40223
2022/8/31 17:32:50, 25154105, no2, 35.43750, 225.66667, 226.43136, -13.59482
2022/8/31 17:33:50, 25214243, no2, 35.56250, 228.07843, 226.62745, 0.74476
2022/8/31 17:34:50, 25274478, no2, 35.62500, 226.92156, 225.45097, -5.37956
2022/8/31 17:35:50, 25334515, no2, 35.68750, 230.33332, 226.25489, 14.55112
2022/8/31 17:36:50, 25394751, no2, 35.87500, 227.62745, 228.05882, -2.91712
2022/8/31 17:37:50, 25454787, no2, 35.87500, 223.98039, 225.47058, -23.19722
2022/8/31 17:38:50, 25515042, no2, 35.56250, 227.15686, 225.60784, -4.05036
2022/8/31 17:39:50, 25575081, no2, 35.06250, 222.86274, 224.47058, -28.66191
